Header Size,1,
#Channels,2,1
Channel Offset,3,5
Encoder Offset,4,1758
DigitalIO Offset,5,1759
Total Configuration Size Ch#1,6,1753
channel_id#1,7,0
channel_enabled#1,8,1
Configuration Offset,9,9
DSP Offset,10,75
FIR BandPass Offset,11,87
Gaussian Filter Offset,12,599
FIR Envelope Offset,13,1111
DAC Curves Offset,14,1623
Configuration Parameter Size,15,66
Sampling Frequency (DIVISOR OF 100MHz),16,1
Data Window,17,5000
Delay,18,0
Gain Analog,19,869
Gain Digital,20,1048576
External Multiplexer Enabled,21,0
Voltage,22,600
Burst Frequency (Picoseconds),23,100000
Number Of Cycles (Really Half Number Cycles),24,2
Number Of Bursts,25,1
PRF (in terms of clock cycles),26,100000
Delay,27,0
Delta Delay,28,0
Delta Adding,29,0
Directional Phasing,30,1
Magnet Model,31,1
Pulse Width,32,0
Initial Delay,33,80000
Ramp Up Voltage,34,0
Voltage,35,0
gate_id,36,0
gate_enabled,37,0
start,38,500
range,39,1000
threshold:,40,4915
tof algorithm,41,3
tof_average,42,2
tof_minimum_thickness,43,15
threshold_alarm_enabled,44,0
threshold_alarm_crossing,45,1
tof_alarm_enabled,46,0
tof_alarm_type,47,1
tof_alarm_crossing,48,1
tof_alarm_minimum_value,49,0
tof_alarm_maximum_value,50,102400
gate_id,51,0
gate_enabled,52,1
start,53,300
range,54,1200
threshold:,55,2703
tof algorithm,56,3
tof_average,57,2
tof_minimum_thickness,58,15
threshold_alarm_enabled,59,0
threshold_alarm_crossing,60,1
tof_alarm_enabled,61,0
tof_alarm_type,62,1
tof_alarm_crossing,63,1
tof_alarm_minimum_value,64,0
tof_alarm_maximum_value,65,102400
gate_id,66,0
gate_enabled,67,0
start,68,500
range,69,1000
threshold:,70,4915
tof algorithm,71,3
tof_average,72,2
tof_minimum_thickness,73,15
threshold_alarm_enabled,74,0
threshold_alarm_crossing,75,1
tof_alarm_enabled,76,0
tof_alarm_type,77,1
tof_alarm_crossing,78,1
tof_alarm_minimum_value,79,0
tof_alarm_maximum_value,80,102400
average,81,4
noise_reduction_filter,82,3
bandpass enabled,83,1
FIR BandPass Filter Coeff ,84,512
FIR BandPass Filter L ,85,17
gaussian enabled,86,0
Gaussian Filter Coeff ,87,512
Gaussian Filter L ,88,16
envelope enabled,89,0
Envelope Filter Coeff ,90,512
Envelope Filter L ,91,0
Analog Filter Selection,92,0
BandPass Coeffient0,93,-7
BandPass Coeffient1,94,1
BandPass Coeffient2,95,7
BandPass Coeffient3,96,9
BandPass Coeffient4,97,6
BandPass Coeffient5,98,0
BandPass Coeffient6,99,-6
BandPass Coeffient7,100,-9
BandPass Coeffient8,101,-8
BandPass Coeffient9,102,-1
BandPass Coeffient10,103,8
BandPass Coeffient11,104,18
BandPass Coeffient12,105,25
BandPass Coeffient13,106,26
BandPass Coeffient14,107,22
BandPass Coeffient15,108,14
BandPass Coeffient16,109,6
BandPass Coeffient17,110,0
BandPass Coeffient18,111,0
BandPass Coeffient19,112,6
BandPass Coeffient20,113,15
BandPass Coeffient21,114,25
BandPass Coeffient22,115,31
BandPass Coeffient23,116,30
BandPass Coeffient24,117,22
BandPass Coeffient25,118,10
BandPass Coeffient26,119,-1
BandPass Coeffient27,120,-11
BandPass Coeffient28,121,-13
BandPass Coeffient29,122,-9
BandPass Coeffient30,123,0
BandPass Coeffient31,124,9
BandPass Coeffient32,125,15
BandPass Coeffient33,126,12
BandPass Coeffient34,127,2
BandPass Coeffient35,128,-13
BandPass Coeffient36,129,-30
BandPass Coeffient37,130,-41
BandPass Coeffient38,131,-44
BandPass Coeffient39,132,-38
BandPass Coeffient40,133,-24
BandPass Coeffient41,134,-10
BandPass Coeffient42,135,-1
BandPass Coeffient43,136,-1
BandPass Coeffient44,137,-11
BandPass Coeffient45,138,-28
BandPass Coeffient46,139,-45
BandPass Coeffient47,140,-55
BandPass Coeffient48,141,-54
BandPass Coeffient49,142,-41
BandPass Coeffient50,143,-19
BandPass Coeffient51,144,3
BandPass Coeffient52,145,20
BandPass Coeffient53,146,25
BandPass Coeffient54,147,17
BandPass Coeffient55,148,0
BandPass Coeffient56,149,-17
BandPass Coeffient57,150,-27
BandPass Coeffient58,151,-23
BandPass Coeffient59,152,-4
BandPass Coeffient60,153,25
BandPass Coeffient61,154,55
BandPass Coeffient62,155,77
BandPass Coeffient63,156,82
BandPass Coeffient64,157,70
BandPass Coeffient65,158,45
BandPass Coeffient66,159,19
BandPass Coeffient67,160,2
BandPass Coeffient68,161,2
BandPass Coeffient69,162,20
BandPass Coeffient70,163,51
BandPass Coeffient71,164,82
BandPass Coeffient72,165,101
BandPass Coeffient73,166,99
BandPass Coeffient74,167,75
BandPass Coeffient75,168,35
BandPass Coeffient76,169,-6
BandPass Coeffient77,170,-37
BandPass Coeffient78,171,-45
BandPass Coeffient79,172,-30
BandPass Coeffient80,173,0
BandPass Coeffient81,174,32
BandPass Coeffient82,175,49
BandPass Coeffient83,176,42
BandPass Coeffient84,177,7
BandPass Coeffient85,178,-44
BandPass Coeffient86,179,-98
BandPass Coeffient87,180,-136
BandPass Coeffient88,181,-145
BandPass Coeffient89,182,-123
BandPass Coeffient90,183,-80
BandPass Coeffient91,184,-34
BandPass Coeffient92,185,-4
BandPass Coeffient93,186,-4
BandPass Coeffient94,187,-36
BandPass Coeffient95,188,-89
BandPass Coeffient96,189,-142
BandPass Coeffient97,190,-175
BandPass Coeffient98,191,-171
BandPass Coeffient99,192,-129
BandPass Coeffient100,193,-61
BandPass Coeffient101,194,11
BandPass Coeffient102,195,63
BandPass Coeffient103,196,77
BandPass Coeffient104,197,52
BandPass Coeffient105,198,0
BandPass Coeffient106,199,-54
BandPass Coeffient107,200,-83
BandPass Coeffient108,201,-71
BandPass Coeffient109,202,-13
BandPass Coeffient110,203,74
BandPass Coeffient111,204,164
BandPass Coeffient112,205,226
BandPass Coeffient113,206,241
BandPass Coeffient114,207,204
BandPass Coeffient115,208,132
BandPass Coeffient116,209,56
BandPass Coeffient117,210,6
BandPass Coeffient118,211,6
BandPass Coeffient119,212,59
BandPass Coeffient120,213,145
BandPass Coeffient121,214,233
BandPass Coeffient122,215,285
BandPass Coeffient123,216,279
BandPass Coeffient124,217,210
BandPass Coeffient125,218,98
BandPass Coeffient126,219,-18
BandPass Coeffient127,220,-101
BandPass Coeffient128,221,-124
BandPass Coeffient129,222,-83
BandPass Coeffient130,223,0
BandPass Coeffient131,224,86
BandPass Coeffient132,225,134
BandPass Coeffient133,226,113
BandPass Coeffient134,227,21
BandPass Coeffient135,228,-118
BandPass Coeffient136,229,-261
BandPass Coeffient137,230,-360
BandPass Coeffient138,231,-382
BandPass Coeffient139,232,-323
BandPass Coeffient140,233,-210
BandPass Coeffient141,234,-88
BandPass Coeffient142,235,-10
BandPass Coeffient143,236,-10
BandPass Coeffient144,237,-93
BandPass Coeffient145,238,-229
BandPass Coeffient146,239,-366
BandPass Coeffient147,240,-449
BandPass Coeffient148,241,-438
BandPass Coeffient149,242,-329
BandPass Coeffient150,243,-155
BandPass Coeffient151,244,28
BandPass Coeffient152,245,159
BandPass Coeffient153,246,195
BandPass Coeffient154,247,131
BandPass Coeffient155,248,0
BandPass Coeffient156,249,-135
BandPass Coeffient157,250,-209
BandPass Coeffient158,251,-177
BandPass Coeffient159,252,-32
BandPass Coeffient160,253,185
BandPass Coeffient161,254,408
BandPass Coeffient162,255,562
BandPass Coeffient163,256,596
BandPass Coeffient164,257,505
BandPass Coeffient165,258,327
BandPass Coeffient166,259,138
BandPass Coeffient167,260,16
BandPass Coeffient168,261,17
BandPass Coeffient169,262,146
BandPass Coeffient170,263,358
BandPass Coeffient171,264,573
BandPass Coeffient172,265,702
BandPass Coeffient173,266,685
BandPass Coeffient174,267,516
BandPass Coeffient175,268,242
BandPass Coeffient176,269,-44
BandPass Coeffient177,270,-250
BandPass Coeffient178,271,-306
BandPass Coeffient179,272,-205
BandPass Coeffient180,273,0
BandPass Coeffient181,274,213
BandPass Coeffient182,275,331
BandPass Coeffient183,276,280
BandPass Coeffient184,277,51
BandPass Coeffient185,278,-293
BandPass Coeffient186,279,-647
BandPass Coeffient187,280,-893
BandPass Coeffient188,281,-950
BandPass Coeffient189,282,-806
BandPass Coeffient190,283,-524
BandPass Coeffient191,284,-221
BandPass Coeffient192,285,-26
BandPass Coeffient193,286,-27
BandPass Coeffient194,287,-235
BandPass Coeffient195,288,-580
BandPass Coeffient196,289,-931
BandPass Coeffient197,290,-1144
BandPass Coeffient198,291,-1121
BandPass Coeffient199,292,-846
BandPass Coeffient200,293,-399
BandPass Coeffient201,294,73
BandPass Coeffient202,295,414
BandPass Coeffient203,296,511
BandPass Coeffient204,297,344
BandPass Coeffient205,298,0
BandPass Coeffient206,299,-361
BandPass Coeffient207,300,-562
BandPass Coeffient208,301,-478
BandPass Coeffient209,302,-89
BandPass Coeffient210,303,506
BandPass Coeffient211,304,1125
BandPass Coeffient212,305,1563
BandPass Coeffient213,306,1673
BandPass Coeffient214,307,1429
BandPass Coeffient215,308,936
BandPass Coeffient216,309,399
BandPass Coeffient217,310,48
BandPass Coeffient218,311,50
BandPass Coeffient219,312,436
BandPass Coeffient220,313,1084
BandPass Coeffient221,314,1756
BandPass Coeffient222,315,2182
BandPass Coeffient223,316,2163
BandPass Coeffient224,317,1654
BandPass Coeffient225,318,791
BandPass Coeffient226,319,-147
BandPass Coeffient227,320,-844
BandPass Coeffient228,321,-1057
BandPass Coeffient229,322,-724
BandPass Coeffient230,323,0
BandPass Coeffient231,324,787
BandPass Coeffient232,325,1249
BandPass Coeffient233,326,1086
BandPass Coeffient234,327,207
BandPass Coeffient235,328,-1208
BandPass Coeffient236,329,-2757
BandPass Coeffient237,330,-3943
BandPass Coeffient238,331,-4359
BandPass Coeffient239,332,-3855
BandPass Coeffient240,333,-2623
BandPass Coeffient241,334,-1167
BandPass Coeffient242,335,-149
BandPass Coeffient243,336,-162
BandPass Coeffient244,337,-1489
BandPass Coeffient245,338,-3952
BandPass Coeffient246,339,-6897
BandPass Coeffient247,340,-9339
BandPass Coeffient248,341,-10240
BandPass Coeffient249,342,-8834
BandPass Coeffient250,343,-4899
BandPass Coeffient251,344,1105
BandPass Coeffient252,345,8103
BandPass Coeffient253,346,14648
BandPass Coeffient254,347,19292
BandPass Coeffient255,348,20971
BandPass Coeffient256,349,19294
BandPass Coeffient257,350,14650
BandPass Coeffient258,351,8105
BandPass Coeffient259,352,1105
BandPass Coeffient260,353,-4901
BandPass Coeffient261,354,-8837
BandPass Coeffient262,355,-10245
BandPass Coeffient263,356,-9344
BandPass Coeffient264,357,-6901
BandPass Coeffient265,358,-3955
BandPass Coeffient266,359,-1490
BandPass Coeffient267,360,-162
BandPass Coeffient268,361,-149
BandPass Coeffient269,362,-1168
BandPass Coeffient270,363,-2626
BandPass Coeffient271,364,-3859
BandPass Coeffient272,365,-4364
BandPass Coeffient273,366,-3948
BandPass Coeffient274,367,-2760
BandPass Coeffient275,368,-1210
BandPass Coeffient276,369,207
BandPass Coeffient277,370,1087
BandPass Coeffient278,371,1251
BandPass Coeffient279,372,788
BandPass Coeffient280,373,0
BandPass Coeffient281,374,-725
BandPass Coeffient282,375,-1059
BandPass Coeffient283,376,-845
BandPass Coeffient284,377,-148
BandPass Coeffient285,378,792
BandPass Coeffient286,379,1657
BandPass Coeffient287,380,2168
BandPass Coeffient288,381,2187
BandPass Coeffient289,382,1761
BandPass Coeffient290,383,1087
BandPass Coeffient291,384,437
BandPass Coeffient292,385,50
BandPass Coeffient293,386,49
BandPass Coeffient294,387,400
BandPass Coeffient295,388,939
BandPass Coeffient296,389,1434
BandPass Coeffient297,390,1678
BandPass Coeffient298,391,1567
BandPass Coeffient299,392,1128
BandPass Coeffient300,393,508
BandPass Coeffient301,394,-89
BandPass Coeffient302,395,-479
BandPass Coeffient303,396,-563
BandPass Coeffient304,397,-362
BandPass Coeffient305,398,0
BandPass Coeffient306,399,345
BandPass Coeffient307,400,513
BandPass Coeffient308,401,416
BandPass Coeffient309,402,74
BandPass Coeffient310,403,-401
BandPass Coeffient311,404,-850
BandPass Coeffient312,405,-1125
BandPass Coeffient313,406,-1149
BandPass Coeffient314,407,-935
BandPass Coeffient315,408,-583
BandPass Coeffient316,409,-237
BandPass Coeffient317,410,-27
BandPass Coeffient318,411,-27
BandPass Coeffient319,412,-222
BandPass Coeffient320,413,-526
BandPass Coeffient321,414,-810
BandPass Coeffient322,415,-955
BandPass Coeffient323,416,-898
BandPass Coeffient324,417,-651
BandPass Coeffient325,418,-294
BandPass Coeffient326,419,52
BandPass Coeffient327,420,281
BandPass Coeffient328,421,332
BandPass Coeffient329,422,214
BandPass Coeffient330,423,0
BandPass Coeffient331,424,-207
BandPass Coeffient332,425,-308
BandPass Coeffient333,426,-251
BandPass Coeffient334,427,-44
BandPass Coeffient335,428,244
BandPass Coeffient336,429,519
BandPass Coeffient337,430,689
BandPass Coeffient338,431,706
BandPass Coeffient339,432,576
BandPass Coeffient340,433,360
BandPass Coeffient341,434,147
BandPass Coeffient342,435,17
BandPass Coeffient343,436,16
BandPass Coeffient344,437,139
BandPass Coeffient345,438,329
BandPass Coeffient346,439,508
BandPass Coeffient347,440,601
BandPass Coeffient348,441,566
BandPass Coeffient349,442,411
BandPass Coeffient350,443,186
BandPass Coeffient351,444,-33
BandPass Coeffient352,445,-178
BandPass Coeffient353,446,-211
BandPass Coeffient354,447,-136
BandPass Coeffient355,448,0
BandPass Coeffient356,449,132
BandPass Coeffient357,450,197
BandPass Coeffient358,451,160
BandPass Coeffient359,452,28
BandPass Coeffient360,453,-156
BandPass Coeffient361,454,-332
BandPass Coeffient362,455,-442
BandPass Coeffient363,456,-453
BandPass Coeffient364,457,-370
BandPass Coeffient365,458,-231
BandPass Coeffient366,459,-94
BandPass Coeffient367,460,-11
BandPass Coeffient368,461,-10
BandPass Coeffient369,462,-89
BandPass Coeffient370,463,-212
BandPass Coeffient371,464,-326
BandPass Coeffient372,465,-386
BandPass Coeffient373,466,-363
BandPass Coeffient374,467,-264
BandPass Coeffient375,468,-119
BandPass Coeffient376,469,21
BandPass Coeffient377,470,114
BandPass Coeffient378,471,135
BandPass Coeffient379,472,87
BandPass Coeffient380,473,0
BandPass Coeffient381,474,-84
BandPass Coeffient382,475,-126
BandPass Coeffient383,476,-102
BandPass Coeffient384,477,-18
BandPass Coeffient385,478,99
BandPass Coeffient386,479,212
BandPass Coeffient387,480,282
BandPass Coeffient388,481,289
BandPass Coeffient389,482,235
BandPass Coeffient390,483,147
BandPass Coeffient391,484,60
BandPass Coeffient392,485,7
BandPass Coeffient393,486,6
BandPass Coeffient394,487,56
BandPass Coeffient395,488,134
BandPass Coeffient396,489,206
BandPass Coeffient397,490,244
BandPass Coeffient398,491,229
BandPass Coeffient399,492,166
BandPass Coeffient400,493,75
BandPass Coeffient401,494,-13
BandPass Coeffient402,495,-71
BandPass Coeffient403,496,-85
BandPass Coeffient404,497,-54
BandPass Coeffient405,498,0
BandPass Coeffient406,499,52
BandPass Coeffient407,500,78
BandPass Coeffient408,501,63
BandPass Coeffient409,502,11
BandPass Coeffient410,503,-61
BandPass Coeffient411,504,-131
BandPass Coeffient412,505,-174
BandPass Coeffient413,506,-178
BandPass Coeffient414,507,-144
BandPass Coeffient415,508,-90
BandPass Coeffient416,509,-36
BandPass Coeffient417,510,-4
BandPass Coeffient418,511,-4
BandPass Coeffient419,512,-34
BandPass Coeffient420,513,-81
BandPass Coeffient421,514,-125
BandPass Coeffient422,515,-147
BandPass Coeffient423,516,-138
BandPass Coeffient424,517,-100
BandPass Coeffient425,518,-45
BandPass Coeffient426,519,7
BandPass Coeffient427,520,43
BandPass Coeffient428,521,50
BandPass Coeffient429,522,32
BandPass Coeffient430,523,0
BandPass Coeffient431,524,-31
BandPass Coeffient432,525,-46
BandPass Coeffient433,526,-37
BandPass Coeffient434,527,-6
BandPass Coeffient435,528,36
BandPass Coeffient436,529,76
BandPass Coeffient437,530,101
BandPass Coeffient438,531,103
BandPass Coeffient439,532,84
BandPass Coeffient440,533,52
BandPass Coeffient441,534,21
BandPass Coeffient442,535,2
BandPass Coeffient443,536,2
BandPass Coeffient444,537,19
BandPass Coeffient445,538,46
BandPass Coeffient446,539,71
BandPass Coeffient447,540,83
BandPass Coeffient448,541,78
BandPass Coeffient449,542,56
BandPass Coeffient450,543,25
BandPass Coeffient451,544,-4
BandPass Coeffient452,545,-24
BandPass Coeffient453,546,-28
BandPass Coeffient454,547,-18
BandPass Coeffient455,548,0
BandPass Coeffient456,549,17
BandPass Coeffient457,550,25
BandPass Coeffient458,551,20
BandPass Coeffient459,552,3
BandPass Coeffient460,553,-20
BandPass Coeffient461,554,-42
BandPass Coeffient462,555,-55
BandPass Coeffient463,556,-56
BandPass Coeffient464,557,-46
BandPass Coeffient465,558,-28
BandPass Coeffient466,559,-11
BandPass Coeffient467,560,-1
BandPass Coeffient468,561,-1
BandPass Coeffient469,562,-10
BandPass Coeffient470,563,-25
BandPass Coeffient471,564,-38
BandPass Coeffient472,565,-45
BandPass Coeffient473,566,-42
BandPass Coeffient474,567,-30
BandPass Coeffient475,568,-13
BandPass Coeffient476,569,2
BandPass Coeffient477,570,13
BandPass Coeffient478,571,15
BandPass Coeffient479,572,9
BandPass Coeffient480,573,0
BandPass Coeffient481,574,-9
BandPass Coeffient482,575,-14
BandPass Coeffient483,576,-11
BandPass Coeffient484,577,-2
BandPass Coeffient485,578,11
BandPass Coeffient486,579,23
BandPass Coeffient487,580,30
BandPass Coeffient488,581,31
BandPass Coeffient489,582,25
BandPass Coeffient490,583,16
BandPass Coeffient491,584,6
BandPass Coeffient492,585,0
BandPass Coeffient493,586,0
BandPass Coeffient494,587,6
BandPass Coeffient495,588,14
BandPass Coeffient496,589,22
BandPass Coeffient497,590,26
BandPass Coeffient498,591,25
BandPass Coeffient499,592,18
BandPass Coeffient500,593,8
BandPass Coeffient501,594,-1
BandPass Coeffient502,595,-8
BandPass Coeffient503,596,-9
BandPass Coeffient504,597,-6
BandPass Coeffient505,598,0
BandPass Coeffient506,599,6
BandPass Coeffient507,600,9
BandPass Coeffient508,601,7
BandPass Coeffient509,602,1
BandPass Coeffient510,603,-7
BandPass Coeffient511,604,-16
Gaussian Coeffient0,605,0
Gaussian Coeffient1,606,268
Gaussian Coeffient2,607,1099
Gaussian Coeffient3,608,2971
Gaussian Coeffient4,609,6269
Gaussian Coeffient5,610,10814
Gaussian Coeffient6,611,15420
Gaussian Coeffient7,612,17974
Gaussian Coeffient8,613,16354
Gaussian Coeffient9,614,9840
Gaussian Coeffient10,615,0
Gaussian Coeffient11,616,-9840
Gaussian Coeffient12,617,-16354
Gaussian Coeffient13,618,-17974
Gaussian Coeffient14,619,-15420
Gaussian Coeffient15,620,-10814
Gaussian Coeffient16,621,-6269
Gaussian Coeffient17,622,-2971
Gaussian Coeffient18,623,-1099
Gaussian Coeffient19,624,-268
Gaussian Coeffient20,625,0
Gaussian Coeffient21,626,0
Gaussian Coeffient22,627,0
Gaussian Coeffient23,628,0
Gaussian Coeffient24,629,0
Gaussian Coeffient25,630,0
Gaussian Coeffient26,631,0
Gaussian Coeffient27,632,0
Gaussian Coeffient28,633,0
Gaussian Coeffient29,634,0
Gaussian Coeffient30,635,0
Gaussian Coeffient31,636,0
Gaussian Coeffient32,637,0
Gaussian Coeffient33,638,0
Gaussian Coeffient34,639,0
Gaussian Coeffient35,640,0
Gaussian Coeffient36,641,0
Gaussian Coeffient37,642,0
Gaussian Coeffient38,643,0
Gaussian Coeffient39,644,0
Gaussian Coeffient40,645,0
Gaussian Coeffient41,646,0
Gaussian Coeffient42,647,0
Gaussian Coeffient43,648,0
Gaussian Coeffient44,649,0
Gaussian Coeffient45,650,0
Gaussian Coeffient46,651,0
Gaussian Coeffient47,652,0
Gaussian Coeffient48,653,0
Gaussian Coeffient49,654,0
Gaussian Coeffient50,655,0
Gaussian Coeffient51,656,0
Gaussian Coeffient52,657,0
Gaussian Coeffient53,658,0
Gaussian Coeffient54,659,0
Gaussian Coeffient55,660,0
Gaussian Coeffient56,661,0
Gaussian Coeffient57,662,0
Gaussian Coeffient58,663,0
Gaussian Coeffient59,664,0
Gaussian Coeffient60,665,0
Gaussian Coeffient61,666,0
Gaussian Coeffient62,667,0
Gaussian Coeffient63,668,0
Gaussian Coeffient64,669,0
Gaussian Coeffient65,670,0
Gaussian Coeffient66,671,0
Gaussian Coeffient67,672,0
Gaussian Coeffient68,673,0
Gaussian Coeffient69,674,0
Gaussian Coeffient70,675,0
Gaussian Coeffient71,676,0
Gaussian Coeffient72,677,0
Gaussian Coeffient73,678,0
Gaussian Coeffient74,679,0
Gaussian Coeffient75,680,0
Gaussian Coeffient76,681,0
Gaussian Coeffient77,682,0
Gaussian Coeffient78,683,0
Gaussian Coeffient79,684,0
Gaussian Coeffient80,685,0
Gaussian Coeffient81,686,0
Gaussian Coeffient82,687,0
Gaussian Coeffient83,688,0
Gaussian Coeffient84,689,0
Gaussian Coeffient85,690,0
Gaussian Coeffient86,691,0
Gaussian Coeffient87,692,0
Gaussian Coeffient88,693,0
Gaussian Coeffient89,694,0
Gaussian Coeffient90,695,0
Gaussian Coeffient91,696,0
Gaussian Coeffient92,697,0
Gaussian Coeffient93,698,0
Gaussian Coeffient94,699,0
Gaussian Coeffient95,700,0
Gaussian Coeffient96,701,0
Gaussian Coeffient97,702,0
Gaussian Coeffient98,703,0
Gaussian Coeffient99,704,0
Gaussian Coeffient100,705,0
Gaussian Coeffient101,706,0
Gaussian Coeffient102,707,0
Gaussian Coeffient103,708,0
Gaussian Coeffient104,709,0
Gaussian Coeffient105,710,0
Gaussian Coeffient106,711,0
Gaussian Coeffient107,712,0
Gaussian Coeffient108,713,0
Gaussian Coeffient109,714,0
Gaussian Coeffient110,715,0
Gaussian Coeffient111,716,0
Gaussian Coeffient112,717,0
Gaussian Coeffient113,718,0
Gaussian Coeffient114,719,0
Gaussian Coeffient115,720,0
Gaussian Coeffient116,721,0
Gaussian Coeffient117,722,0
Gaussian Coeffient118,723,0
Gaussian Coeffient119,724,0
Gaussian Coeffient120,725,0
Gaussian Coeffient121,726,0
Gaussian Coeffient122,727,0
Gaussian Coeffient123,728,0
Gaussian Coeffient124,729,0
Gaussian Coeffient125,730,0
Gaussian Coeffient126,731,0
Gaussian Coeffient127,732,0
Gaussian Coeffient128,733,0
Gaussian Coeffient129,734,0
Gaussian Coeffient130,735,0
Gaussian Coeffient131,736,0
Gaussian Coeffient132,737,0
Gaussian Coeffient133,738,0
Gaussian Coeffient134,739,0
Gaussian Coeffient135,740,0
Gaussian Coeffient136,741,0
Gaussian Coeffient137,742,0
Gaussian Coeffient138,743,0
Gaussian Coeffient139,744,0
Gaussian Coeffient140,745,0
Gaussian Coeffient141,746,0
Gaussian Coeffient142,747,0
Gaussian Coeffient143,748,0
Gaussian Coeffient144,749,0
Gaussian Coeffient145,750,0
Gaussian Coeffient146,751,0
Gaussian Coeffient147,752,0
Gaussian Coeffient148,753,0
Gaussian Coeffient149,754,0
Gaussian Coeffient150,755,0
Gaussian Coeffient151,756,0
Gaussian Coeffient152,757,0
Gaussian Coeffient153,758,0
Gaussian Coeffient154,759,0
Gaussian Coeffient155,760,0
Gaussian Coeffient156,761,0
Gaussian Coeffient157,762,0
Gaussian Coeffient158,763,0
Gaussian Coeffient159,764,0
Gaussian Coeffient160,765,0
Gaussian Coeffient161,766,0
Gaussian Coeffient162,767,0
Gaussian Coeffient163,768,0
Gaussian Coeffient164,769,0
Gaussian Coeffient165,770,0
Gaussian Coeffient166,771,0
Gaussian Coeffient167,772,0
Gaussian Coeffient168,773,0
Gaussian Coeffient169,774,0
Gaussian Coeffient170,775,0
Gaussian Coeffient171,776,0
Gaussian Coeffient172,777,0
Gaussian Coeffient173,778,0
Gaussian Coeffient174,779,0
Gaussian Coeffient175,780,0
Gaussian Coeffient176,781,0
Gaussian Coeffient177,782,0
Gaussian Coeffient178,783,0
Gaussian Coeffient179,784,0
Gaussian Coeffient180,785,0
Gaussian Coeffient181,786,0
Gaussian Coeffient182,787,0
Gaussian Coeffient183,788,0
Gaussian Coeffient184,789,0
Gaussian Coeffient185,790,0
Gaussian Coeffient186,791,0
Gaussian Coeffient187,792,0
Gaussian Coeffient188,793,0
Gaussian Coeffient189,794,0
Gaussian Coeffient190,795,0
Gaussian Coeffient191,796,0
Gaussian Coeffient192,797,0
Gaussian Coeffient193,798,0
Gaussian Coeffient194,799,0
Gaussian Coeffient195,800,0
Gaussian Coeffient196,801,0
Gaussian Coeffient197,802,0
Gaussian Coeffient198,803,0
Gaussian Coeffient199,804,0
Gaussian Coeffient200,805,0
Gaussian Coeffient201,806,0
Gaussian Coeffient202,807,0
Gaussian Coeffient203,808,0
Gaussian Coeffient204,809,0
Gaussian Coeffient205,810,0
Gaussian Coeffient206,811,0
Gaussian Coeffient207,812,0
Gaussian Coeffient208,813,0
Gaussian Coeffient209,814,0
Gaussian Coeffient210,815,0
Gaussian Coeffient211,816,0
Gaussian Coeffient212,817,0
Gaussian Coeffient213,818,0
Gaussian Coeffient214,819,0
Gaussian Coeffient215,820,0
Gaussian Coeffient216,821,0
Gaussian Coeffient217,822,0
Gaussian Coeffient218,823,0
Gaussian Coeffient219,824,0
Gaussian Coeffient220,825,0
Gaussian Coeffient221,826,0
Gaussian Coeffient222,827,0
Gaussian Coeffient223,828,0
Gaussian Coeffient224,829,0
Gaussian Coeffient225,830,0
Gaussian Coeffient226,831,0
Gaussian Coeffient227,832,0
Gaussian Coeffient228,833,0
Gaussian Coeffient229,834,0
Gaussian Coeffient230,835,0
Gaussian Coeffient231,836,0
Gaussian Coeffient232,837,0
Gaussian Coeffient233,838,0
Gaussian Coeffient234,839,0
Gaussian Coeffient235,840,0
Gaussian Coeffient236,841,0
Gaussian Coeffient237,842,0
Gaussian Coeffient238,843,0
Gaussian Coeffient239,844,0
Gaussian Coeffient240,845,0
Gaussian Coeffient241,846,0
Gaussian Coeffient242,847,0
Gaussian Coeffient243,848,0
Gaussian Coeffient244,849,0
Gaussian Coeffient245,850,0
Gaussian Coeffient246,851,0
Gaussian Coeffient247,852,0
Gaussian Coeffient248,853,0
Gaussian Coeffient249,854,0
Gaussian Coeffient250,855,0
Gaussian Coeffient251,856,0
Gaussian Coeffient252,857,0
Gaussian Coeffient253,858,0
Gaussian Coeffient254,859,0
Gaussian Coeffient255,860,0
Gaussian Coeffient256,861,0
Gaussian Coeffient257,862,0
Gaussian Coeffient258,863,0
Gaussian Coeffient259,864,0
Gaussian Coeffient260,865,0
Gaussian Coeffient261,866,0
Gaussian Coeffient262,867,0
Gaussian Coeffient263,868,0
Gaussian Coeffient264,869,0
Gaussian Coeffient265,870,0
Gaussian Coeffient266,871,0
Gaussian Coeffient267,872,0
Gaussian Coeffient268,873,0
Gaussian Coeffient269,874,0
Gaussian Coeffient270,875,0
Gaussian Coeffient271,876,0
Gaussian Coeffient272,877,0
Gaussian Coeffient273,878,0
Gaussian Coeffient274,879,0
Gaussian Coeffient275,880,0
Gaussian Coeffient276,881,0
Gaussian Coeffient277,882,0
Gaussian Coeffient278,883,0
Gaussian Coeffient279,884,0
Gaussian Coeffient280,885,0
Gaussian Coeffient281,886,0
Gaussian Coeffient282,887,0
Gaussian Coeffient283,888,0
Gaussian Coeffient284,889,0
Gaussian Coeffient285,890,0
Gaussian Coeffient286,891,0
Gaussian Coeffient287,892,0
Gaussian Coeffient288,893,0
Gaussian Coeffient289,894,0
Gaussian Coeffient290,895,0
Gaussian Coeffient291,896,0
Gaussian Coeffient292,897,0
Gaussian Coeffient293,898,0
Gaussian Coeffient294,899,0
Gaussian Coeffient295,900,0
Gaussian Coeffient296,901,0
Gaussian Coeffient297,902,0
Gaussian Coeffient298,903,0
Gaussian Coeffient299,904,0
Gaussian Coeffient300,905,0
Gaussian Coeffient301,906,0
Gaussian Coeffient302,907,0
Gaussian Coeffient303,908,0
Gaussian Coeffient304,909,0
Gaussian Coeffient305,910,0
Gaussian Coeffient306,911,0
Gaussian Coeffient307,912,0
Gaussian Coeffient308,913,0
Gaussian Coeffient309,914,0
Gaussian Coeffient310,915,0
Gaussian Coeffient311,916,0
Gaussian Coeffient312,917,0
Gaussian Coeffient313,918,0
Gaussian Coeffient314,919,0
Gaussian Coeffient315,920,0
Gaussian Coeffient316,921,0
Gaussian Coeffient317,922,0
Gaussian Coeffient318,923,0
Gaussian Coeffient319,924,0
Gaussian Coeffient320,925,0
Gaussian Coeffient321,926,0
Gaussian Coeffient322,927,0
Gaussian Coeffient323,928,0
Gaussian Coeffient324,929,0
Gaussian Coeffient325,930,0
Gaussian Coeffient326,931,0
Gaussian Coeffient327,932,0
Gaussian Coeffient328,933,0
Gaussian Coeffient329,934,0
Gaussian Coeffient330,935,0
Gaussian Coeffient331,936,0
Gaussian Coeffient332,937,0
Gaussian Coeffient333,938,0
Gaussian Coeffient334,939,0
Gaussian Coeffient335,940,0
Gaussian Coeffient336,941,0
Gaussian Coeffient337,942,0
Gaussian Coeffient338,943,0
Gaussian Coeffient339,944,0
Gaussian Coeffient340,945,0
Gaussian Coeffient341,946,0
Gaussian Coeffient342,947,0
Gaussian Coeffient343,948,0
Gaussian Coeffient344,949,0
Gaussian Coeffient345,950,0
Gaussian Coeffient346,951,0
Gaussian Coeffient347,952,0
Gaussian Coeffient348,953,0
Gaussian Coeffient349,954,0
Gaussian Coeffient350,955,0
Gaussian Coeffient351,956,0
Gaussian Coeffient352,957,0
Gaussian Coeffient353,958,0
Gaussian Coeffient354,959,0
Gaussian Coeffient355,960,0
Gaussian Coeffient356,961,0
Gaussian Coeffient357,962,0
Gaussian Coeffient358,963,0
Gaussian Coeffient359,964,0
Gaussian Coeffient360,965,0
Gaussian Coeffient361,966,0
Gaussian Coeffient362,967,0
Gaussian Coeffient363,968,0
Gaussian Coeffient364,969,0
Gaussian Coeffient365,970,0
Gaussian Coeffient366,971,0
Gaussian Coeffient367,972,0
Gaussian Coeffient368,973,0
Gaussian Coeffient369,974,0
Gaussian Coeffient370,975,0
Gaussian Coeffient371,976,0
Gaussian Coeffient372,977,0
Gaussian Coeffient373,978,0
Gaussian Coeffient374,979,0
Gaussian Coeffient375,980,0
Gaussian Coeffient376,981,0
Gaussian Coeffient377,982,0
Gaussian Coeffient378,983,0
Gaussian Coeffient379,984,0
Gaussian Coeffient380,985,0
Gaussian Coeffient381,986,0
Gaussian Coeffient382,987,0
Gaussian Coeffient383,988,0
Gaussian Coeffient384,989,0
Gaussian Coeffient385,990,0
Gaussian Coeffient386,991,0
Gaussian Coeffient387,992,0
Gaussian Coeffient388,993,0
Gaussian Coeffient389,994,0
Gaussian Coeffient390,995,0
Gaussian Coeffient391,996,0
Gaussian Coeffient392,997,0
Gaussian Coeffient393,998,0
Gaussian Coeffient394,999,0
Gaussian Coeffient395,1000,0
Gaussian Coeffient396,1001,0
Gaussian Coeffient397,1002,0
Gaussian Coeffient398,1003,0
Gaussian Coeffient399,1004,0
Gaussian Coeffient400,1005,0
Gaussian Coeffient401,1006,0
Gaussian Coeffient402,1007,0
Gaussian Coeffient403,1008,0
Gaussian Coeffient404,1009,0
Gaussian Coeffient405,1010,0
Gaussian Coeffient406,1011,0
Gaussian Coeffient407,1012,0
Gaussian Coeffient408,1013,0
Gaussian Coeffient409,1014,0
Gaussian Coeffient410,1015,0
Gaussian Coeffient411,1016,0
Gaussian Coeffient412,1017,0
Gaussian Coeffient413,1018,0
Gaussian Coeffient414,1019,0
Gaussian Coeffient415,1020,0
Gaussian Coeffient416,1021,0
Gaussian Coeffient417,1022,0
Gaussian Coeffient418,1023,0
Gaussian Coeffient419,1024,0
Gaussian Coeffient420,1025,0
Gaussian Coeffient421,1026,0
Gaussian Coeffient422,1027,0
Gaussian Coeffient423,1028,0
Gaussian Coeffient424,1029,0
Gaussian Coeffient425,1030,0
Gaussian Coeffient426,1031,0
Gaussian Coeffient427,1032,0
Gaussian Coeffient428,1033,0
Gaussian Coeffient429,1034,0
Gaussian Coeffient430,1035,0
Gaussian Coeffient431,1036,0
Gaussian Coeffient432,1037,0
Gaussian Coeffient433,1038,0
Gaussian Coeffient434,1039,0
Gaussian Coeffient435,1040,0
Gaussian Coeffient436,1041,0
Gaussian Coeffient437,1042,0
Gaussian Coeffient438,1043,0
Gaussian Coeffient439,1044,0
Gaussian Coeffient440,1045,0
Gaussian Coeffient441,1046,0
Gaussian Coeffient442,1047,0
Gaussian Coeffient443,1048,0
Gaussian Coeffient444,1049,0
Gaussian Coeffient445,1050,0
Gaussian Coeffient446,1051,0
Gaussian Coeffient447,1052,0
Gaussian Coeffient448,1053,0
Gaussian Coeffient449,1054,0
Gaussian Coeffient450,1055,0
Gaussian Coeffient451,1056,0
Gaussian Coeffient452,1057,0
Gaussian Coeffient453,1058,0
Gaussian Coeffient454,1059,0
Gaussian Coeffient455,1060,0
Gaussian Coeffient456,1061,0
Gaussian Coeffient457,1062,0
Gaussian Coeffient458,1063,0
Gaussian Coeffient459,1064,0
Gaussian Coeffient460,1065,0
Gaussian Coeffient461,1066,0
Gaussian Coeffient462,1067,0
Gaussian Coeffient463,1068,0
Gaussian Coeffient464,1069,0
Gaussian Coeffient465,1070,0
Gaussian Coeffient466,1071,0
Gaussian Coeffient467,1072,0
Gaussian Coeffient468,1073,0
Gaussian Coeffient469,1074,0
Gaussian Coeffient470,1075,0
Gaussian Coeffient471,1076,0
Gaussian Coeffient472,1077,0
Gaussian Coeffient473,1078,0
Gaussian Coeffient474,1079,0
Gaussian Coeffient475,1080,0
Gaussian Coeffient476,1081,0
Gaussian Coeffient477,1082,0
Gaussian Coeffient478,1083,0
Gaussian Coeffient479,1084,0
Gaussian Coeffient480,1085,0
Gaussian Coeffient481,1086,0
Gaussian Coeffient482,1087,0
Gaussian Coeffient483,1088,0
Gaussian Coeffient484,1089,0
Gaussian Coeffient485,1090,0
Gaussian Coeffient486,1091,0
Gaussian Coeffient487,1092,0
Gaussian Coeffient488,1093,0
Gaussian Coeffient489,1094,0
Gaussian Coeffient490,1095,0
Gaussian Coeffient491,1096,0
Gaussian Coeffient492,1097,0
Gaussian Coeffient493,1098,0
Gaussian Coeffient494,1099,0
Gaussian Coeffient495,1100,0
Gaussian Coeffient496,1101,0
Gaussian Coeffient497,1102,0
Gaussian Coeffient498,1103,0
Gaussian Coeffient499,1104,0
Gaussian Coeffient500,1105,0
Gaussian Coeffient501,1106,0
Gaussian Coeffient502,1107,0
Gaussian Coeffient503,1108,0
Gaussian Coeffient504,1109,0
Gaussian Coeffient505,1110,0
Gaussian Coeffient506,1111,0
Gaussian Coeffient507,1112,0
Gaussian Coeffient508,1113,0
Gaussian Coeffient509,1114,0
Gaussian Coeffient510,1115,0
Gaussian Coeffient511,1116,0
Envelope Coeffient0,1117,0
Envelope Coeffient1,1118,0
Envelope Coeffient2,1119,0
Envelope Coeffient3,1120,0
Envelope Coeffient4,1121,0
Envelope Coeffient5,1122,0
Envelope Coeffient6,1123,0
Envelope Coeffient7,1124,0
Envelope Coeffient8,1125,0
Envelope Coeffient9,1126,0
Envelope Coeffient10,1127,0
Envelope Coeffient11,1128,0
Envelope Coeffient12,1129,0
Envelope Coeffient13,1130,0
Envelope Coeffient14,1131,0
Envelope Coeffient15,1132,0
Envelope Coeffient16,1133,0
Envelope Coeffient17,1134,0
Envelope Coeffient18,1135,0
Envelope Coeffient19,1136,0
Envelope Coeffient20,1137,0
Envelope Coeffient21,1138,0
Envelope Coeffient22,1139,0
Envelope Coeffient23,1140,0
Envelope Coeffient24,1141,0
Envelope Coeffient25,1142,0
Envelope Coeffient26,1143,0
Envelope Coeffient27,1144,0
Envelope Coeffient28,1145,0
Envelope Coeffient29,1146,0
Envelope Coeffient30,1147,0
Envelope Coeffient31,1148,0
Envelope Coeffient32,1149,0
Envelope Coeffient33,1150,0
Envelope Coeffient34,1151,0
Envelope Coeffient35,1152,0
Envelope Coeffient36,1153,0
Envelope Coeffient37,1154,0
Envelope Coeffient38,1155,0
Envelope Coeffient39,1156,0
Envelope Coeffient40,1157,0
Envelope Coeffient41,1158,0
Envelope Coeffient42,1159,0
Envelope Coeffient43,1160,0
Envelope Coeffient44,1161,0
Envelope Coeffient45,1162,0
Envelope Coeffient46,1163,0
Envelope Coeffient47,1164,0
Envelope Coeffient48,1165,0
Envelope Coeffient49,1166,0
Envelope Coeffient50,1167,0
Envelope Coeffient51,1168,0
Envelope Coeffient52,1169,0
Envelope Coeffient53,1170,0
Envelope Coeffient54,1171,0
Envelope Coeffient55,1172,0
Envelope Coeffient56,1173,0
Envelope Coeffient57,1174,0
Envelope Coeffient58,1175,0
Envelope Coeffient59,1176,0
Envelope Coeffient60,1177,0
Envelope Coeffient61,1178,0
Envelope Coeffient62,1179,0
Envelope Coeffient63,1180,0
Envelope Coeffient64,1181,0
Envelope Coeffient65,1182,0
Envelope Coeffient66,1183,0
Envelope Coeffient67,1184,0
Envelope Coeffient68,1185,0
Envelope Coeffient69,1186,0
Envelope Coeffient70,1187,0
Envelope Coeffient71,1188,0
Envelope Coeffient72,1189,0
Envelope Coeffient73,1190,0
Envelope Coeffient74,1191,0
Envelope Coeffient75,1192,0
Envelope Coeffient76,1193,0
Envelope Coeffient77,1194,0
Envelope Coeffient78,1195,0
Envelope Coeffient79,1196,0
Envelope Coeffient80,1197,0
Envelope Coeffient81,1198,0
Envelope Coeffient82,1199,0
Envelope Coeffient83,1200,0
Envelope Coeffient84,1201,0
Envelope Coeffient85,1202,0
Envelope Coeffient86,1203,0
Envelope Coeffient87,1204,0
Envelope Coeffient88,1205,0
Envelope Coeffient89,1206,0
Envelope Coeffient90,1207,0
Envelope Coeffient91,1208,0
Envelope Coeffient92,1209,0
Envelope Coeffient93,1210,0
Envelope Coeffient94,1211,0
Envelope Coeffient95,1212,0
Envelope Coeffient96,1213,0
Envelope Coeffient97,1214,0
Envelope Coeffient98,1215,0
Envelope Coeffient99,1216,0
Envelope Coeffient100,1217,0
Envelope Coeffient101,1218,0
Envelope Coeffient102,1219,0
Envelope Coeffient103,1220,0
Envelope Coeffient104,1221,0
Envelope Coeffient105,1222,0
Envelope Coeffient106,1223,0
Envelope Coeffient107,1224,0
Envelope Coeffient108,1225,0
Envelope Coeffient109,1226,0
Envelope Coeffient110,1227,0
Envelope Coeffient111,1228,0
Envelope Coeffient112,1229,0
Envelope Coeffient113,1230,0
Envelope Coeffient114,1231,0
Envelope Coeffient115,1232,0
Envelope Coeffient116,1233,0
Envelope Coeffient117,1234,0
Envelope Coeffient118,1235,0
Envelope Coeffient119,1236,0
Envelope Coeffient120,1237,0
Envelope Coeffient121,1238,0
Envelope Coeffient122,1239,0
Envelope Coeffient123,1240,0
Envelope Coeffient124,1241,0
Envelope Coeffient125,1242,0
Envelope Coeffient126,1243,0
Envelope Coeffient127,1244,0
Envelope Coeffient128,1245,0
Envelope Coeffient129,1246,0
Envelope Coeffient130,1247,0
Envelope Coeffient131,1248,0
Envelope Coeffient132,1249,0
Envelope Coeffient133,1250,0
Envelope Coeffient134,1251,0
Envelope Coeffient135,1252,0
Envelope Coeffient136,1253,0
Envelope Coeffient137,1254,0
Envelope Coeffient138,1255,0
Envelope Coeffient139,1256,0
Envelope Coeffient140,1257,0
Envelope Coeffient141,1258,0
Envelope Coeffient142,1259,0
Envelope Coeffient143,1260,0
Envelope Coeffient144,1261,0
Envelope Coeffient145,1262,0
Envelope Coeffient146,1263,0
Envelope Coeffient147,1264,0
Envelope Coeffient148,1265,0
Envelope Coeffient149,1266,0
Envelope Coeffient150,1267,0
Envelope Coeffient151,1268,0
Envelope Coeffient152,1269,0
Envelope Coeffient153,1270,0
Envelope Coeffient154,1271,0
Envelope Coeffient155,1272,0
Envelope Coeffient156,1273,0
Envelope Coeffient157,1274,0
Envelope Coeffient158,1275,0
Envelope Coeffient159,1276,0
Envelope Coeffient160,1277,0
Envelope Coeffient161,1278,0
Envelope Coeffient162,1279,0
Envelope Coeffient163,1280,0
Envelope Coeffient164,1281,0
Envelope Coeffient165,1282,0
Envelope Coeffient166,1283,0
Envelope Coeffient167,1284,0
Envelope Coeffient168,1285,0
Envelope Coeffient169,1286,0
Envelope Coeffient170,1287,0
Envelope Coeffient171,1288,0
Envelope Coeffient172,1289,0
Envelope Coeffient173,1290,0
Envelope Coeffient174,1291,0
Envelope Coeffient175,1292,0
Envelope Coeffient176,1293,0
Envelope Coeffient177,1294,0
Envelope Coeffient178,1295,0
Envelope Coeffient179,1296,0
Envelope Coeffient180,1297,0
Envelope Coeffient181,1298,0
Envelope Coeffient182,1299,0
Envelope Coeffient183,1300,0
Envelope Coeffient184,1301,0
Envelope Coeffient185,1302,0
Envelope Coeffient186,1303,0
Envelope Coeffient187,1304,0
Envelope Coeffient188,1305,0
Envelope Coeffient189,1306,0
Envelope Coeffient190,1307,0
Envelope Coeffient191,1308,0
Envelope Coeffient192,1309,0
Envelope Coeffient193,1310,0
Envelope Coeffient194,1311,0
Envelope Coeffient195,1312,0
Envelope Coeffient196,1313,0
Envelope Coeffient197,1314,0
Envelope Coeffient198,1315,0
Envelope Coeffient199,1316,0
Envelope Coeffient200,1317,0
Envelope Coeffient201,1318,0
Envelope Coeffient202,1319,0
Envelope Coeffient203,1320,0
Envelope Coeffient204,1321,0
Envelope Coeffient205,1322,0
Envelope Coeffient206,1323,0
Envelope Coeffient207,1324,0
Envelope Coeffient208,1325,0
Envelope Coeffient209,1326,0
Envelope Coeffient210,1327,0
Envelope Coeffient211,1328,0
Envelope Coeffient212,1329,0
Envelope Coeffient213,1330,0
Envelope Coeffient214,1331,0
Envelope Coeffient215,1332,0
Envelope Coeffient216,1333,0
Envelope Coeffient217,1334,0
Envelope Coeffient218,1335,0
Envelope Coeffient219,1336,0
Envelope Coeffient220,1337,0
Envelope Coeffient221,1338,0
Envelope Coeffient222,1339,0
Envelope Coeffient223,1340,0
Envelope Coeffient224,1341,0
Envelope Coeffient225,1342,0
Envelope Coeffient226,1343,0
Envelope Coeffient227,1344,0
Envelope Coeffient228,1345,0
Envelope Coeffient229,1346,0
Envelope Coeffient230,1347,0
Envelope Coeffient231,1348,0
Envelope Coeffient232,1349,0
Envelope Coeffient233,1350,0
Envelope Coeffient234,1351,0
Envelope Coeffient235,1352,0
Envelope Coeffient236,1353,0
Envelope Coeffient237,1354,0
Envelope Coeffient238,1355,0
Envelope Coeffient239,1356,0
Envelope Coeffient240,1357,0
Envelope Coeffient241,1358,0
Envelope Coeffient242,1359,0
Envelope Coeffient243,1360,0
Envelope Coeffient244,1361,0
Envelope Coeffient245,1362,0
Envelope Coeffient246,1363,0
Envelope Coeffient247,1364,0
Envelope Coeffient248,1365,0
Envelope Coeffient249,1366,0
Envelope Coeffient250,1367,0
Envelope Coeffient251,1368,0
Envelope Coeffient252,1369,0
Envelope Coeffient253,1370,0
Envelope Coeffient254,1371,0
Envelope Coeffient255,1372,0
Envelope Coeffient256,1373,0
Envelope Coeffient257,1374,0
Envelope Coeffient258,1375,0
Envelope Coeffient259,1376,0
Envelope Coeffient260,1377,0
Envelope Coeffient261,1378,0
Envelope Coeffient262,1379,0
Envelope Coeffient263,1380,0
Envelope Coeffient264,1381,0
Envelope Coeffient265,1382,0
Envelope Coeffient266,1383,0
Envelope Coeffient267,1384,0
Envelope Coeffient268,1385,0
Envelope Coeffient269,1386,0
Envelope Coeffient270,1387,0
Envelope Coeffient271,1388,0
Envelope Coeffient272,1389,0
Envelope Coeffient273,1390,0
Envelope Coeffient274,1391,0
Envelope Coeffient275,1392,0
Envelope Coeffient276,1393,0
Envelope Coeffient277,1394,0
Envelope Coeffient278,1395,0
Envelope Coeffient279,1396,0
Envelope Coeffient280,1397,0
Envelope Coeffient281,1398,0
Envelope Coeffient282,1399,0
Envelope Coeffient283,1400,0
Envelope Coeffient284,1401,0
Envelope Coeffient285,1402,0
Envelope Coeffient286,1403,0
Envelope Coeffient287,1404,0
Envelope Coeffient288,1405,0
Envelope Coeffient289,1406,0
Envelope Coeffient290,1407,0
Envelope Coeffient291,1408,0
Envelope Coeffient292,1409,0
Envelope Coeffient293,1410,0
Envelope Coeffient294,1411,0
Envelope Coeffient295,1412,0
Envelope Coeffient296,1413,0
Envelope Coeffient297,1414,0
Envelope Coeffient298,1415,0
Envelope Coeffient299,1416,0
Envelope Coeffient300,1417,0
Envelope Coeffient301,1418,0
Envelope Coeffient302,1419,0
Envelope Coeffient303,1420,0
Envelope Coeffient304,1421,0
Envelope Coeffient305,1422,0
Envelope Coeffient306,1423,0
Envelope Coeffient307,1424,0
Envelope Coeffient308,1425,0
Envelope Coeffient309,1426,0
Envelope Coeffient310,1427,0
Envelope Coeffient311,1428,0
Envelope Coeffient312,1429,0
Envelope Coeffient313,1430,0
Envelope Coeffient314,1431,0
Envelope Coeffient315,1432,0
Envelope Coeffient316,1433,0
Envelope Coeffient317,1434,0
Envelope Coeffient318,1435,0
Envelope Coeffient319,1436,0
Envelope Coeffient320,1437,0
Envelope Coeffient321,1438,0
Envelope Coeffient322,1439,0
Envelope Coeffient323,1440,0
Envelope Coeffient324,1441,0
Envelope Coeffient325,1442,0
Envelope Coeffient326,1443,0
Envelope Coeffient327,1444,0
Envelope Coeffient328,1445,0
Envelope Coeffient329,1446,0
Envelope Coeffient330,1447,0
Envelope Coeffient331,1448,0
Envelope Coeffient332,1449,0
Envelope Coeffient333,1450,0
Envelope Coeffient334,1451,0
Envelope Coeffient335,1452,0
Envelope Coeffient336,1453,0
Envelope Coeffient337,1454,0
Envelope Coeffient338,1455,0
Envelope Coeffient339,1456,0
Envelope Coeffient340,1457,0
Envelope Coeffient341,1458,0
Envelope Coeffient342,1459,0
Envelope Coeffient343,1460,0
Envelope Coeffient344,1461,0
Envelope Coeffient345,1462,0
Envelope Coeffient346,1463,0
Envelope Coeffient347,1464,0
Envelope Coeffient348,1465,0
Envelope Coeffient349,1466,0
Envelope Coeffient350,1467,0
Envelope Coeffient351,1468,0
Envelope Coeffient352,1469,0
Envelope Coeffient353,1470,0
Envelope Coeffient354,1471,0
Envelope Coeffient355,1472,0
Envelope Coeffient356,1473,0
Envelope Coeffient357,1474,0
Envelope Coeffient358,1475,0
Envelope Coeffient359,1476,0
Envelope Coeffient360,1477,0
Envelope Coeffient361,1478,0
Envelope Coeffient362,1479,0
Envelope Coeffient363,1480,0
Envelope Coeffient364,1481,0
Envelope Coeffient365,1482,0
Envelope Coeffient366,1483,0
Envelope Coeffient367,1484,0
Envelope Coeffient368,1485,0
Envelope Coeffient369,1486,0
Envelope Coeffient370,1487,0
Envelope Coeffient371,1488,0
Envelope Coeffient372,1489,0
Envelope Coeffient373,1490,0
Envelope Coeffient374,1491,0
Envelope Coeffient375,1492,0
Envelope Coeffient376,1493,0
Envelope Coeffient377,1494,0
Envelope Coeffient378,1495,0
Envelope Coeffient379,1496,0
Envelope Coeffient380,1497,0
Envelope Coeffient381,1498,0
Envelope Coeffient382,1499,0
Envelope Coeffient383,1500,0
Envelope Coeffient384,1501,0
Envelope Coeffient385,1502,0
Envelope Coeffient386,1503,0
Envelope Coeffient387,1504,0
Envelope Coeffient388,1505,0
Envelope Coeffient389,1506,0
Envelope Coeffient390,1507,0
Envelope Coeffient391,1508,0
Envelope Coeffient392,1509,0
Envelope Coeffient393,1510,0
Envelope Coeffient394,1511,0
Envelope Coeffient395,1512,0
Envelope Coeffient396,1513,0
Envelope Coeffient397,1514,0
Envelope Coeffient398,1515,0
Envelope Coeffient399,1516,0
Envelope Coeffient400,1517,0
Envelope Coeffient401,1518,0
Envelope Coeffient402,1519,0
Envelope Coeffient403,1520,0
Envelope Coeffient404,1521,0
Envelope Coeffient405,1522,0
Envelope Coeffient406,1523,0
Envelope Coeffient407,1524,0
Envelope Coeffient408,1525,0
Envelope Coeffient409,1526,0
Envelope Coeffient410,1527,0
Envelope Coeffient411,1528,0
Envelope Coeffient412,1529,0
Envelope Coeffient413,1530,0
Envelope Coeffient414,1531,0
Envelope Coeffient415,1532,0
Envelope Coeffient416,1533,0
Envelope Coeffient417,1534,0
Envelope Coeffient418,1535,0
Envelope Coeffient419,1536,0
Envelope Coeffient420,1537,0
Envelope Coeffient421,1538,0
Envelope Coeffient422,1539,0
Envelope Coeffient423,1540,0
Envelope Coeffient424,1541,0
Envelope Coeffient425,1542,0
Envelope Coeffient426,1543,0
Envelope Coeffient427,1544,0
Envelope Coeffient428,1545,0
Envelope Coeffient429,1546,0
Envelope Coeffient430,1547,0
Envelope Coeffient431,1548,0
Envelope Coeffient432,1549,0
Envelope Coeffient433,1550,0
Envelope Coeffient434,1551,0
Envelope Coeffient435,1552,0
Envelope Coeffient436,1553,0
Envelope Coeffient437,1554,0
Envelope Coeffient438,1555,0
Envelope Coeffient439,1556,0
Envelope Coeffient440,1557,0
Envelope Coeffient441,1558,0
Envelope Coeffient442,1559,0
Envelope Coeffient443,1560,0
Envelope Coeffient444,1561,0
Envelope Coeffient445,1562,0
Envelope Coeffient446,1563,0
Envelope Coeffient447,1564,0
Envelope Coeffient448,1565,0
Envelope Coeffient449,1566,0
Envelope Coeffient450,1567,0
Envelope Coeffient451,1568,0
Envelope Coeffient452,1569,0
Envelope Coeffient453,1570,0
Envelope Coeffient454,1571,0
Envelope Coeffient455,1572,0
Envelope Coeffient456,1573,0
Envelope Coeffient457,1574,0
Envelope Coeffient458,1575,0
Envelope Coeffient459,1576,0
Envelope Coeffient460,1577,0
Envelope Coeffient461,1578,0
Envelope Coeffient462,1579,0
Envelope Coeffient463,1580,0
Envelope Coeffient464,1581,0
Envelope Coeffient465,1582,0
Envelope Coeffient466,1583,0
Envelope Coeffient467,1584,0
Envelope Coeffient468,1585,0
Envelope Coeffient469,1586,0
Envelope Coeffient470,1587,0
Envelope Coeffient471,1588,0
Envelope Coeffient472,1589,0
Envelope Coeffient473,1590,0
Envelope Coeffient474,1591,0
Envelope Coeffient475,1592,0
Envelope Coeffient476,1593,0
Envelope Coeffient477,1594,0
Envelope Coeffient478,1595,0
Envelope Coeffient479,1596,0
Envelope Coeffient480,1597,0
Envelope Coeffient481,1598,0
Envelope Coeffient482,1599,0
Envelope Coeffient483,1600,0
Envelope Coeffient484,1601,0
Envelope Coeffient485,1602,0
Envelope Coeffient486,1603,0
Envelope Coeffient487,1604,0
Envelope Coeffient488,1605,0
Envelope Coeffient489,1606,0
Envelope Coeffient490,1607,0
Envelope Coeffient491,1608,0
Envelope Coeffient492,1609,0
Envelope Coeffient493,1610,0
Envelope Coeffient494,1611,0
Envelope Coeffient495,1612,0
Envelope Coeffient496,1613,0
Envelope Coeffient497,1614,0
Envelope Coeffient498,1615,0
Envelope Coeffient499,1616,0
Envelope Coeffient500,1617,0
Envelope Coeffient501,1618,0
Envelope Coeffient502,1619,0
Envelope Coeffient503,1620,0
Envelope Coeffient504,1621,0
Envelope Coeffient505,1622,0
Envelope Coeffient506,1623,0
Envelope Coeffient507,1624,0
Envelope Coeffient508,1625,0
Envelope Coeffient509,1626,0
Envelope Coeffient510,1627,0
Envelope Coeffient511,1628,0
Actual Taps,1629,2
Reserved,1630,0
Start Time,1631,0
Start Gain,1632,2949120
Step#0,1633,0
GainStep#0,1634,0
Step#1,1635,250000
GainStep#1,1636,0
Step#2,1637,99750000
GainStep#2,1638,0
Step#3,1639,0
GainStep#3,1640,0
Step#4,1641,0
GainStep#4,1642,0
Step#5,1643,0
GainStep#5,1644,0
Step#6,1645,0
GainStep#6,1646,0
Step#7,1647,0
GainStep#7,1648,0
Step#8,1649,0
GainStep#8,1650,0
Step#9,1651,0
GainStep#9,1652,0
Step#10,1653,0
GainStep#10,1654,0
Step#11,1655,0
GainStep#11,1656,0
Step#12,1657,0
GainStep#12,1658,0
Step#13,1659,0
GainStep#13,1660,0
Step#14,1661,0
GainStep#14,1662,0
Step#15,1663,0
GainStep#15,1664,0
Step#16,1665,0
GainStep#16,1666,0
Step#17,1667,0
GainStep#17,1668,0
Step#18,1669,0
GainStep#18,1670,0
Step#19,1671,0
GainStep#19,1672,0
Step#20,1673,0
GainStep#20,1674,0
Step#21,1675,0
GainStep#21,1676,0
Step#22,1677,0
GainStep#22,1678,0
Step#23,1679,0
GainStep#23,1680,0
Step#24,1681,0
GainStep#24,1682,0
Step#25,1683,0
GainStep#25,1684,0
Step#26,1685,0
GainStep#26,1686,0
Step#27,1687,0
GainStep#27,1688,0
Step#28,1689,0
GainStep#28,1690,0
Step#29,1691,0
GainStep#29,1692,0
Step#30,1693,0
GainStep#30,1694,0
Step#31,1695,0
GainStep#31,1696,0
Step#32,1697,0
GainStep#32,1698,0
Step#33,1699,0
GainStep#33,1700,0
Step#34,1701,0
GainStep#34,1702,0
Step#35,1703,0
GainStep#35,1704,0
Step#36,1705,0
GainStep#36,1706,0
Step#37,1707,0
GainStep#37,1708,0
Step#38,1709,0
GainStep#38,1710,0
Step#39,1711,0
GainStep#39,1712,0
Step#40,1713,0
GainStep#40,1714,0
Step#41,1715,0
GainStep#41,1716,0
Step#42,1717,0
GainStep#42,1718,0
Step#43,1719,0
GainStep#43,1720,0
Step#44,1721,0
GainStep#44,1722,0
Step#45,1723,0
GainStep#45,1724,0
Step#46,1725,0
GainStep#46,1726,0
Step#47,1727,0
GainStep#47,1728,0
Step#48,1729,0
GainStep#48,1730,0
Step#49,1731,0
GainStep#49,1732,0
Step#50,1733,0
GainStep#50,1734,0
Step#51,1735,0
GainStep#51,1736,0
Step#52,1737,0
GainStep#52,1738,0
Step#53,1739,0
GainStep#53,1740,0
Step#54,1741,0
GainStep#54,1742,0
Step#55,1743,0
GainStep#55,1744,0
Step#56,1745,0
GainStep#56,1746,0
Step#57,1747,0
GainStep#57,1748,0
Step#58,1749,0
GainStep#58,1750,0
Step#59,1751,0
GainStep#59,1752,0
Step#60,1753,0
GainStep#60,1754,0
Step#61,1755,0
GainStep#61,1756,0
Step#62,1757,0
GainStep#62,1758,0
 trigger type,1759,0
Digitial IO:,1760,255
