Header Size,1,
#Channels,2,2
Channel Offset,3,6
Channel Offset,4,1759
Encoder Offset,5,3512
DigitalIO Offset,6,3513
Total Configuration Size Ch#1,7,1753
channel_id#1,8,0
channel_enabled#1,9,1
Configuration Offset,10,9
DSP Offset,11,75
FIR BandPass Offset,12,87
Gaussian Filter Offset,13,599
FIR Envelope Offset,14,1111
DAC Curves Offset,15,1623
Configuration Parameter Size,16,66
Sampling Frequency (DIVISOR OF 100MHz),17,4
Data Window,18,2500
Delay,19,0
Gain Analog,20,0
Gain Digital,21,1048576
External Multiplexer Enabled,22,0
Voltage,23,600
Burst Frequency (Picoseconds),24,1666
Number Of Cycles (Really Half Number Cycles),25,2
Number Of Bursts,26,1
PRF (in terms of clock cycles),27,4000000
Delay,28,0
Delta Delay,29,0
Delta Adding,30,0
Directional Phasing,31,1
Magnet Model,32,1
Pulse Width,33,0
Initial Delay,34,80000
Ramp Up Voltage,35,0
Voltage,36,0
gate_id,37,0
gate_enabled,38,1
start,39,125
range,40,250
threshold:,41,4915
tof algorithm,42,1
tof_average,43,2
tof_minimum_thickness,44,8
threshold_alarm_enabled,45,0
threshold_alarm_crossing,46,1
tof_alarm_enabled,47,0
tof_alarm_type,48,1
tof_alarm_crossing,49,1
tof_alarm_minimum_value,50,0
tof_alarm_maximum_value,51,25600
gate_id,52,0
gate_enabled,53,1
start,54,125
range,55,250
threshold:,56,4915
tof algorithm,57,1
tof_average,58,2
tof_minimum_thickness,59,8
threshold_alarm_enabled,60,0
threshold_alarm_crossing,61,1
tof_alarm_enabled,62,0
tof_alarm_type,63,1
tof_alarm_crossing,64,1
tof_alarm_minimum_value,65,0
tof_alarm_maximum_value,66,25600
gate_id,67,0
gate_enabled,68,1
start,69,125
range,70,250
threshold:,71,4915
tof algorithm,72,1
tof_average,73,2
tof_minimum_thickness,74,8
threshold_alarm_enabled,75,0
threshold_alarm_crossing,76,1
tof_alarm_enabled,77,0
tof_alarm_type,78,1
tof_alarm_crossing,79,1
tof_alarm_minimum_value,80,0
tof_alarm_maximum_value,81,25600
average,82,0
noise_reduction_filter,83,0
bandpass enabled,84,0
FIR BandPass Filter Coeff ,85,512
FIR BandPass Filter L ,86,0
gaussian enabled,87,0
Gaussian Filter Coeff ,88,512
Gaussian Filter L ,89,0
envelope enabled,90,0
Envelope Filter Coeff ,91,512
Envelope Filter L ,92,0
Analog Filter Selection,93,0
BandPass Coeffient0,94,0
BandPass Coeffient1,95,0
BandPass Coeffient2,96,0
BandPass Coeffient3,97,0
BandPass Coeffient4,98,0
BandPass Coeffient5,99,0
BandPass Coeffient6,100,0
BandPass Coeffient7,101,0
BandPass Coeffient8,102,0
BandPass Coeffient9,103,0
BandPass Coeffient10,104,0
BandPass Coeffient11,105,0
BandPass Coeffient12,106,0
BandPass Coeffient13,107,0
BandPass Coeffient14,108,0
BandPass Coeffient15,109,0
BandPass Coeffient16,110,0
BandPass Coeffient17,111,0
BandPass Coeffient18,112,0
BandPass Coeffient19,113,0
BandPass Coeffient20,114,0
BandPass Coeffient21,115,0
BandPass Coeffient22,116,0
BandPass Coeffient23,117,0
BandPass Coeffient24,118,0
BandPass Coeffient25,119,0
BandPass Coeffient26,120,0
BandPass Coeffient27,121,0
BandPass Coeffient28,122,0
BandPass Coeffient29,123,0
BandPass Coeffient30,124,0
BandPass Coeffient31,125,0
BandPass Coeffient32,126,0
BandPass Coeffient33,127,0
BandPass Coeffient34,128,0
BandPass Coeffient35,129,0
BandPass Coeffient36,130,0
BandPass Coeffient37,131,0
BandPass Coeffient38,132,0
BandPass Coeffient39,133,0
BandPass Coeffient40,134,0
BandPass Coeffient41,135,0
BandPass Coeffient42,136,0
BandPass Coeffient43,137,0
BandPass Coeffient44,138,0
BandPass Coeffient45,139,0
BandPass Coeffient46,140,0
BandPass Coeffient47,141,0
BandPass Coeffient48,142,0
BandPass Coeffient49,143,0
BandPass Coeffient50,144,0
BandPass Coeffient51,145,0
BandPass Coeffient52,146,0
BandPass Coeffient53,147,0
BandPass Coeffient54,148,0
BandPass Coeffient55,149,0
BandPass Coeffient56,150,0
BandPass Coeffient57,151,0
BandPass Coeffient58,152,0
BandPass Coeffient59,153,0
BandPass Coeffient60,154,0
BandPass Coeffient61,155,0
BandPass Coeffient62,156,0
BandPass Coeffient63,157,0
BandPass Coeffient64,158,0
BandPass Coeffient65,159,0
BandPass Coeffient66,160,0
BandPass Coeffient67,161,0
BandPass Coeffient68,162,0
BandPass Coeffient69,163,0
BandPass Coeffient70,164,0
BandPass Coeffient71,165,0
BandPass Coeffient72,166,0
BandPass Coeffient73,167,0
BandPass Coeffient74,168,0
BandPass Coeffient75,169,0
BandPass Coeffient76,170,0
BandPass Coeffient77,171,0
BandPass Coeffient78,172,0
BandPass Coeffient79,173,0
BandPass Coeffient80,174,0
BandPass Coeffient81,175,0
BandPass Coeffient82,176,0
BandPass Coeffient83,177,0
BandPass Coeffient84,178,0
BandPass Coeffient85,179,0
BandPass Coeffient86,180,0
BandPass Coeffient87,181,0
BandPass Coeffient88,182,0
BandPass Coeffient89,183,0
BandPass Coeffient90,184,0
BandPass Coeffient91,185,0
BandPass Coeffient92,186,0
BandPass Coeffient93,187,0
BandPass Coeffient94,188,0
BandPass Coeffient95,189,0
BandPass Coeffient96,190,0
BandPass Coeffient97,191,0
BandPass Coeffient98,192,0
BandPass Coeffient99,193,0
BandPass Coeffient100,194,0
BandPass Coeffient101,195,0
BandPass Coeffient102,196,0
BandPass Coeffient103,197,0
BandPass Coeffient104,198,0
BandPass Coeffient105,199,0
BandPass Coeffient106,200,0
BandPass Coeffient107,201,0
BandPass Coeffient108,202,0
BandPass Coeffient109,203,0
BandPass Coeffient110,204,0
BandPass Coeffient111,205,0
BandPass Coeffient112,206,0
BandPass Coeffient113,207,0
BandPass Coeffient114,208,0
BandPass Coeffient115,209,0
BandPass Coeffient116,210,0
BandPass Coeffient117,211,0
BandPass Coeffient118,212,0
BandPass Coeffient119,213,0
BandPass Coeffient120,214,0
BandPass Coeffient121,215,0
BandPass Coeffient122,216,0
BandPass Coeffient123,217,0
BandPass Coeffient124,218,0
BandPass Coeffient125,219,0
BandPass Coeffient126,220,0
BandPass Coeffient127,221,0
BandPass Coeffient128,222,0
BandPass Coeffient129,223,0
BandPass Coeffient130,224,0
BandPass Coeffient131,225,0
BandPass Coeffient132,226,0
BandPass Coeffient133,227,0
BandPass Coeffient134,228,0
BandPass Coeffient135,229,0
BandPass Coeffient136,230,0
BandPass Coeffient137,231,0
BandPass Coeffient138,232,0
BandPass Coeffient139,233,0
BandPass Coeffient140,234,0
BandPass Coeffient141,235,0
BandPass Coeffient142,236,0
BandPass Coeffient143,237,0
BandPass Coeffient144,238,0
BandPass Coeffient145,239,0
BandPass Coeffient146,240,0
BandPass Coeffient147,241,0
BandPass Coeffient148,242,0
BandPass Coeffient149,243,0
BandPass Coeffient150,244,0
BandPass Coeffient151,245,0
BandPass Coeffient152,246,0
BandPass Coeffient153,247,0
BandPass Coeffient154,248,0
BandPass Coeffient155,249,0
BandPass Coeffient156,250,0
BandPass Coeffient157,251,0
BandPass Coeffient158,252,0
BandPass Coeffient159,253,0
BandPass Coeffient160,254,0
BandPass Coeffient161,255,0
BandPass Coeffient162,256,0
BandPass Coeffient163,257,0
BandPass Coeffient164,258,0
BandPass Coeffient165,259,0
BandPass Coeffient166,260,0
BandPass Coeffient167,261,0
BandPass Coeffient168,262,0
BandPass Coeffient169,263,0
BandPass Coeffient170,264,0
BandPass Coeffient171,265,0
BandPass Coeffient172,266,0
BandPass Coeffient173,267,0
BandPass Coeffient174,268,0
BandPass Coeffient175,269,0
BandPass Coeffient176,270,0
BandPass Coeffient177,271,0
BandPass Coeffient178,272,0
BandPass Coeffient179,273,0
BandPass Coeffient180,274,0
BandPass Coeffient181,275,0
BandPass Coeffient182,276,0
BandPass Coeffient183,277,0
BandPass Coeffient184,278,0
BandPass Coeffient185,279,0
BandPass Coeffient186,280,0
BandPass Coeffient187,281,0
BandPass Coeffient188,282,0
BandPass Coeffient189,283,0
BandPass Coeffient190,284,0
BandPass Coeffient191,285,0
BandPass Coeffient192,286,0
BandPass Coeffient193,287,0
BandPass Coeffient194,288,0
BandPass Coeffient195,289,0
BandPass Coeffient196,290,0
BandPass Coeffient197,291,0
BandPass Coeffient198,292,0
BandPass Coeffient199,293,0
BandPass Coeffient200,294,0
BandPass Coeffient201,295,0
BandPass Coeffient202,296,0
BandPass Coeffient203,297,0
BandPass Coeffient204,298,0
BandPass Coeffient205,299,0
BandPass Coeffient206,300,0
BandPass Coeffient207,301,0
BandPass Coeffient208,302,0
BandPass Coeffient209,303,0
BandPass Coeffient210,304,0
BandPass Coeffient211,305,0
BandPass Coeffient212,306,0
BandPass Coeffient213,307,0
BandPass Coeffient214,308,0
BandPass Coeffient215,309,0
BandPass Coeffient216,310,0
BandPass Coeffient217,311,0
BandPass Coeffient218,312,0
BandPass Coeffient219,313,0
BandPass Coeffient220,314,0
BandPass Coeffient221,315,0
BandPass Coeffient222,316,0
BandPass Coeffient223,317,0
BandPass Coeffient224,318,0
BandPass Coeffient225,319,0
BandPass Coeffient226,320,0
BandPass Coeffient227,321,0
BandPass Coeffient228,322,0
BandPass Coeffient229,323,0
BandPass Coeffient230,324,0
BandPass Coeffient231,325,0
BandPass Coeffient232,326,0
BandPass Coeffient233,327,0
BandPass Coeffient234,328,0
BandPass Coeffient235,329,0
BandPass Coeffient236,330,0
BandPass Coeffient237,331,0
BandPass Coeffient238,332,0
BandPass Coeffient239,333,0
BandPass Coeffient240,334,0
BandPass Coeffient241,335,0
BandPass Coeffient242,336,0
BandPass Coeffient243,337,0
BandPass Coeffient244,338,0
BandPass Coeffient245,339,0
BandPass Coeffient246,340,0
BandPass Coeffient247,341,0
BandPass Coeffient248,342,0
BandPass Coeffient249,343,0
BandPass Coeffient250,344,0
BandPass Coeffient251,345,0
BandPass Coeffient252,346,0
BandPass Coeffient253,347,0
BandPass Coeffient254,348,0
BandPass Coeffient255,349,0
BandPass Coeffient256,350,0
BandPass Coeffient257,351,0
BandPass Coeffient258,352,0
BandPass Coeffient259,353,0
BandPass Coeffient260,354,0
BandPass Coeffient261,355,0
BandPass Coeffient262,356,0
BandPass Coeffient263,357,0
BandPass Coeffient264,358,0
BandPass Coeffient265,359,0
BandPass Coeffient266,360,0
BandPass Coeffient267,361,0
BandPass Coeffient268,362,0
BandPass Coeffient269,363,0
BandPass Coeffient270,364,0
BandPass Coeffient271,365,0
BandPass Coeffient272,366,0
BandPass Coeffient273,367,0
BandPass Coeffient274,368,0
BandPass Coeffient275,369,0
BandPass Coeffient276,370,0
BandPass Coeffient277,371,0
BandPass Coeffient278,372,0
BandPass Coeffient279,373,0
BandPass Coeffient280,374,0
BandPass Coeffient281,375,0
BandPass Coeffient282,376,0
BandPass Coeffient283,377,0
BandPass Coeffient284,378,0
BandPass Coeffient285,379,0
BandPass Coeffient286,380,0
BandPass Coeffient287,381,0
BandPass Coeffient288,382,0
BandPass Coeffient289,383,0
BandPass Coeffient290,384,0
BandPass Coeffient291,385,0
BandPass Coeffient292,386,0
BandPass Coeffient293,387,0
BandPass Coeffient294,388,0
BandPass Coeffient295,389,0
BandPass Coeffient296,390,0
BandPass Coeffient297,391,0
BandPass Coeffient298,392,0
BandPass Coeffient299,393,0
BandPass Coeffient300,394,0
BandPass Coeffient301,395,0
BandPass Coeffient302,396,0
BandPass Coeffient303,397,0
BandPass Coeffient304,398,0
BandPass Coeffient305,399,0
BandPass Coeffient306,400,0
BandPass Coeffient307,401,0
BandPass Coeffient308,402,0
BandPass Coeffient309,403,0
BandPass Coeffient310,404,0
BandPass Coeffient311,405,0
BandPass Coeffient312,406,0
BandPass Coeffient313,407,0
BandPass Coeffient314,408,0
BandPass Coeffient315,409,0
BandPass Coeffient316,410,0
BandPass Coeffient317,411,0
BandPass Coeffient318,412,0
BandPass Coeffient319,413,0
BandPass Coeffient320,414,0
BandPass Coeffient321,415,0
BandPass Coeffient322,416,0
BandPass Coeffient323,417,0
BandPass Coeffient324,418,0
BandPass Coeffient325,419,0
BandPass Coeffient326,420,0
BandPass Coeffient327,421,0
BandPass Coeffient328,422,0
BandPass Coeffient329,423,0
BandPass Coeffient330,424,0
BandPass Coeffient331,425,0
BandPass Coeffient332,426,0
BandPass Coeffient333,427,0
BandPass Coeffient334,428,0
BandPass Coeffient335,429,0
BandPass Coeffient336,430,0
BandPass Coeffient337,431,0
BandPass Coeffient338,432,0
BandPass Coeffient339,433,0
BandPass Coeffient340,434,0
BandPass Coeffient341,435,0
BandPass Coeffient342,436,0
BandPass Coeffient343,437,0
BandPass Coeffient344,438,0
BandPass Coeffient345,439,0
BandPass Coeffient346,440,0
BandPass Coeffient347,441,0
BandPass Coeffient348,442,0
BandPass Coeffient349,443,0
BandPass Coeffient350,444,0
BandPass Coeffient351,445,0
BandPass Coeffient352,446,0
BandPass Coeffient353,447,0
BandPass Coeffient354,448,0
BandPass Coeffient355,449,0
BandPass Coeffient356,450,0
BandPass Coeffient357,451,0
BandPass Coeffient358,452,0
BandPass Coeffient359,453,0
BandPass Coeffient360,454,0
BandPass Coeffient361,455,0
BandPass Coeffient362,456,0
BandPass Coeffient363,457,0
BandPass Coeffient364,458,0
BandPass Coeffient365,459,0
BandPass Coeffient366,460,0
BandPass Coeffient367,461,0
BandPass Coeffient368,462,0
BandPass Coeffient369,463,0
BandPass Coeffient370,464,0
BandPass Coeffient371,465,0
BandPass Coeffient372,466,0
BandPass Coeffient373,467,0
BandPass Coeffient374,468,0
BandPass Coeffient375,469,0
BandPass Coeffient376,470,0
BandPass Coeffient377,471,0
BandPass Coeffient378,472,0
BandPass Coeffient379,473,0
BandPass Coeffient380,474,0
BandPass Coeffient381,475,0
BandPass Coeffient382,476,0
BandPass Coeffient383,477,0
BandPass Coeffient384,478,0
BandPass Coeffient385,479,0
BandPass Coeffient386,480,0
BandPass Coeffient387,481,0
BandPass Coeffient388,482,0
BandPass Coeffient389,483,0
BandPass Coeffient390,484,0
BandPass Coeffient391,485,0
BandPass Coeffient392,486,0
BandPass Coeffient393,487,0
BandPass Coeffient394,488,0
BandPass Coeffient395,489,0
BandPass Coeffient396,490,0
BandPass Coeffient397,491,0
BandPass Coeffient398,492,0
BandPass Coeffient399,493,0
BandPass Coeffient400,494,0
BandPass Coeffient401,495,0
BandPass Coeffient402,496,0
BandPass Coeffient403,497,0
BandPass Coeffient404,498,0
BandPass Coeffient405,499,0
BandPass Coeffient406,500,0
BandPass Coeffient407,501,0
BandPass Coeffient408,502,0
BandPass Coeffient409,503,0
BandPass Coeffient410,504,0
BandPass Coeffient411,505,0
BandPass Coeffient412,506,0
BandPass Coeffient413,507,0
BandPass Coeffient414,508,0
BandPass Coeffient415,509,0
BandPass Coeffient416,510,0
BandPass Coeffient417,511,0
BandPass Coeffient418,512,0
BandPass Coeffient419,513,0
BandPass Coeffient420,514,0
BandPass Coeffient421,515,0
BandPass Coeffient422,516,0
BandPass Coeffient423,517,0
BandPass Coeffient424,518,0
BandPass Coeffient425,519,0
BandPass Coeffient426,520,0
BandPass Coeffient427,521,0
BandPass Coeffient428,522,0
BandPass Coeffient429,523,0
BandPass Coeffient430,524,0
BandPass Coeffient431,525,0
BandPass Coeffient432,526,0
BandPass Coeffient433,527,0
BandPass Coeffient434,528,0
BandPass Coeffient435,529,0
BandPass Coeffient436,530,0
BandPass Coeffient437,531,0
BandPass Coeffient438,532,0
BandPass Coeffient439,533,0
BandPass Coeffient440,534,0
BandPass Coeffient441,535,0
BandPass Coeffient442,536,0
BandPass Coeffient443,537,0
BandPass Coeffient444,538,0
BandPass Coeffient445,539,0
BandPass Coeffient446,540,0
BandPass Coeffient447,541,0
BandPass Coeffient448,542,0
BandPass Coeffient449,543,0
BandPass Coeffient450,544,0
BandPass Coeffient451,545,0
BandPass Coeffient452,546,0
BandPass Coeffient453,547,0
BandPass Coeffient454,548,0
BandPass Coeffient455,549,0
BandPass Coeffient456,550,0
BandPass Coeffient457,551,0
BandPass Coeffient458,552,0
BandPass Coeffient459,553,0
BandPass Coeffient460,554,0
BandPass Coeffient461,555,0
BandPass Coeffient462,556,0
BandPass Coeffient463,557,0
BandPass Coeffient464,558,0
BandPass Coeffient465,559,0
BandPass Coeffient466,560,0
BandPass Coeffient467,561,0
BandPass Coeffient468,562,0
BandPass Coeffient469,563,0
BandPass Coeffient470,564,0
BandPass Coeffient471,565,0
BandPass Coeffient472,566,0
BandPass Coeffient473,567,0
BandPass Coeffient474,568,0
BandPass Coeffient475,569,0
BandPass Coeffient476,570,0
BandPass Coeffient477,571,0
BandPass Coeffient478,572,0
BandPass Coeffient479,573,0
BandPass Coeffient480,574,0
BandPass Coeffient481,575,0
BandPass Coeffient482,576,0
BandPass Coeffient483,577,0
BandPass Coeffient484,578,0
BandPass Coeffient485,579,0
BandPass Coeffient486,580,0
BandPass Coeffient487,581,0
BandPass Coeffient488,582,0
BandPass Coeffient489,583,0
BandPass Coeffient490,584,0
BandPass Coeffient491,585,0
BandPass Coeffient492,586,0
BandPass Coeffient493,587,0
BandPass Coeffient494,588,0
BandPass Coeffient495,589,0
BandPass Coeffient496,590,0
BandPass Coeffient497,591,0
BandPass Coeffient498,592,0
BandPass Coeffient499,593,0
BandPass Coeffient500,594,0
BandPass Coeffient501,595,0
BandPass Coeffient502,596,0
BandPass Coeffient503,597,0
BandPass Coeffient504,598,0
BandPass Coeffient505,599,0
BandPass Coeffient506,600,0
BandPass Coeffient507,601,0
BandPass Coeffient508,602,0
BandPass Coeffient509,603,0
BandPass Coeffient510,604,0
BandPass Coeffient511,605,0
Gaussian Coeffient0,606,0
Gaussian Coeffient1,607,0
Gaussian Coeffient2,608,0
Gaussian Coeffient3,609,0
Gaussian Coeffient4,610,0
Gaussian Coeffient5,611,0
Gaussian Coeffient6,612,0
Gaussian Coeffient7,613,0
Gaussian Coeffient8,614,0
Gaussian Coeffient9,615,0
Gaussian Coeffient10,616,0
Gaussian Coeffient11,617,0
Gaussian Coeffient12,618,0
Gaussian Coeffient13,619,0
Gaussian Coeffient14,620,0
Gaussian Coeffient15,621,0
Gaussian Coeffient16,622,0
Gaussian Coeffient17,623,0
Gaussian Coeffient18,624,0
Gaussian Coeffient19,625,0
Gaussian Coeffient20,626,0
Gaussian Coeffient21,627,0
Gaussian Coeffient22,628,0
Gaussian Coeffient23,629,0
Gaussian Coeffient24,630,0
Gaussian Coeffient25,631,0
Gaussian Coeffient26,632,0
Gaussian Coeffient27,633,0
Gaussian Coeffient28,634,0
Gaussian Coeffient29,635,0
Gaussian Coeffient30,636,0
Gaussian Coeffient31,637,0
Gaussian Coeffient32,638,0
Gaussian Coeffient33,639,0
Gaussian Coeffient34,640,0
Gaussian Coeffient35,641,0
Gaussian Coeffient36,642,0
Gaussian Coeffient37,643,0
Gaussian Coeffient38,644,0
Gaussian Coeffient39,645,0
Gaussian Coeffient40,646,0
Gaussian Coeffient41,647,0
Gaussian Coeffient42,648,0
Gaussian Coeffient43,649,0
Gaussian Coeffient44,650,0
Gaussian Coeffient45,651,0
Gaussian Coeffient46,652,0
Gaussian Coeffient47,653,0
Gaussian Coeffient48,654,0
Gaussian Coeffient49,655,0
Gaussian Coeffient50,656,0
Gaussian Coeffient51,657,0
Gaussian Coeffient52,658,0
Gaussian Coeffient53,659,0
Gaussian Coeffient54,660,0
Gaussian Coeffient55,661,0
Gaussian Coeffient56,662,0
Gaussian Coeffient57,663,0
Gaussian Coeffient58,664,0
Gaussian Coeffient59,665,0
Gaussian Coeffient60,666,0
Gaussian Coeffient61,667,0
Gaussian Coeffient62,668,0
Gaussian Coeffient63,669,0
Gaussian Coeffient64,670,0
Gaussian Coeffient65,671,0
Gaussian Coeffient66,672,0
Gaussian Coeffient67,673,0
Gaussian Coeffient68,674,0
Gaussian Coeffient69,675,0
Gaussian Coeffient70,676,0
Gaussian Coeffient71,677,0
Gaussian Coeffient72,678,0
Gaussian Coeffient73,679,0
Gaussian Coeffient74,680,0
Gaussian Coeffient75,681,0
Gaussian Coeffient76,682,0
Gaussian Coeffient77,683,0
Gaussian Coeffient78,684,0
Gaussian Coeffient79,685,0
Gaussian Coeffient80,686,0
Gaussian Coeffient81,687,0
Gaussian Coeffient82,688,0
Gaussian Coeffient83,689,0
Gaussian Coeffient84,690,0
Gaussian Coeffient85,691,0
Gaussian Coeffient86,692,0
Gaussian Coeffient87,693,0
Gaussian Coeffient88,694,0
Gaussian Coeffient89,695,0
Gaussian Coeffient90,696,0
Gaussian Coeffient91,697,0
Gaussian Coeffient92,698,0
Gaussian Coeffient93,699,0
Gaussian Coeffient94,700,0
Gaussian Coeffient95,701,0
Gaussian Coeffient96,702,0
Gaussian Coeffient97,703,0
Gaussian Coeffient98,704,0
Gaussian Coeffient99,705,0
Gaussian Coeffient100,706,0
Gaussian Coeffient101,707,0
Gaussian Coeffient102,708,0
Gaussian Coeffient103,709,0
Gaussian Coeffient104,710,0
Gaussian Coeffient105,711,0
Gaussian Coeffient106,712,0
Gaussian Coeffient107,713,0
Gaussian Coeffient108,714,0
Gaussian Coeffient109,715,0
Gaussian Coeffient110,716,0
Gaussian Coeffient111,717,0
Gaussian Coeffient112,718,0
Gaussian Coeffient113,719,0
Gaussian Coeffient114,720,0
Gaussian Coeffient115,721,0
Gaussian Coeffient116,722,0
Gaussian Coeffient117,723,0
Gaussian Coeffient118,724,0
Gaussian Coeffient119,725,0
Gaussian Coeffient120,726,0
Gaussian Coeffient121,727,0
Gaussian Coeffient122,728,0
Gaussian Coeffient123,729,0
Gaussian Coeffient124,730,0
Gaussian Coeffient125,731,0
Gaussian Coeffient126,732,0
Gaussian Coeffient127,733,0
Gaussian Coeffient128,734,0
Gaussian Coeffient129,735,0
Gaussian Coeffient130,736,0
Gaussian Coeffient131,737,0
Gaussian Coeffient132,738,0
Gaussian Coeffient133,739,0
Gaussian Coeffient134,740,0
Gaussian Coeffient135,741,0
Gaussian Coeffient136,742,0
Gaussian Coeffient137,743,0
Gaussian Coeffient138,744,0
Gaussian Coeffient139,745,0
Gaussian Coeffient140,746,0
Gaussian Coeffient141,747,0
Gaussian Coeffient142,748,0
Gaussian Coeffient143,749,0
Gaussian Coeffient144,750,0
Gaussian Coeffient145,751,0
Gaussian Coeffient146,752,0
Gaussian Coeffient147,753,0
Gaussian Coeffient148,754,0
Gaussian Coeffient149,755,0
Gaussian Coeffient150,756,0
Gaussian Coeffient151,757,0
Gaussian Coeffient152,758,0
Gaussian Coeffient153,759,0
Gaussian Coeffient154,760,0
Gaussian Coeffient155,761,0
Gaussian Coeffient156,762,0
Gaussian Coeffient157,763,0
Gaussian Coeffient158,764,0
Gaussian Coeffient159,765,0
Gaussian Coeffient160,766,0
Gaussian Coeffient161,767,0
Gaussian Coeffient162,768,0
Gaussian Coeffient163,769,0
Gaussian Coeffient164,770,0
Gaussian Coeffient165,771,0
Gaussian Coeffient166,772,0
Gaussian Coeffient167,773,0
Gaussian Coeffient168,774,0
Gaussian Coeffient169,775,0
Gaussian Coeffient170,776,0
Gaussian Coeffient171,777,0
Gaussian Coeffient172,778,0
Gaussian Coeffient173,779,0
Gaussian Coeffient174,780,0
Gaussian Coeffient175,781,0
Gaussian Coeffient176,782,0
Gaussian Coeffient177,783,0
Gaussian Coeffient178,784,0
Gaussian Coeffient179,785,0
Gaussian Coeffient180,786,0
Gaussian Coeffient181,787,0
Gaussian Coeffient182,788,0
Gaussian Coeffient183,789,0
Gaussian Coeffient184,790,0
Gaussian Coeffient185,791,0
Gaussian Coeffient186,792,0
Gaussian Coeffient187,793,0
Gaussian Coeffient188,794,0
Gaussian Coeffient189,795,0
Gaussian Coeffient190,796,0
Gaussian Coeffient191,797,0
Gaussian Coeffient192,798,0
Gaussian Coeffient193,799,0
Gaussian Coeffient194,800,0
Gaussian Coeffient195,801,0
Gaussian Coeffient196,802,0
Gaussian Coeffient197,803,0
Gaussian Coeffient198,804,0
Gaussian Coeffient199,805,0
Gaussian Coeffient200,806,0
Gaussian Coeffient201,807,0
Gaussian Coeffient202,808,0
Gaussian Coeffient203,809,0
Gaussian Coeffient204,810,0
Gaussian Coeffient205,811,0
Gaussian Coeffient206,812,0
Gaussian Coeffient207,813,0
Gaussian Coeffient208,814,0
Gaussian Coeffient209,815,0
Gaussian Coeffient210,816,0
Gaussian Coeffient211,817,0
Gaussian Coeffient212,818,0
Gaussian Coeffient213,819,0
Gaussian Coeffient214,820,0
Gaussian Coeffient215,821,0
Gaussian Coeffient216,822,0
Gaussian Coeffient217,823,0
Gaussian Coeffient218,824,0
Gaussian Coeffient219,825,0
Gaussian Coeffient220,826,0
Gaussian Coeffient221,827,0
Gaussian Coeffient222,828,0
Gaussian Coeffient223,829,0
Gaussian Coeffient224,830,0
Gaussian Coeffient225,831,0
Gaussian Coeffient226,832,0
Gaussian Coeffient227,833,0
Gaussian Coeffient228,834,0
Gaussian Coeffient229,835,0
Gaussian Coeffient230,836,0
Gaussian Coeffient231,837,0
Gaussian Coeffient232,838,0
Gaussian Coeffient233,839,0
Gaussian Coeffient234,840,0
Gaussian Coeffient235,841,0
Gaussian Coeffient236,842,0
Gaussian Coeffient237,843,0
Gaussian Coeffient238,844,0
Gaussian Coeffient239,845,0
Gaussian Coeffient240,846,0
Gaussian Coeffient241,847,0
Gaussian Coeffient242,848,0
Gaussian Coeffient243,849,0
Gaussian Coeffient244,850,0
Gaussian Coeffient245,851,0
Gaussian Coeffient246,852,0
Gaussian Coeffient247,853,0
Gaussian Coeffient248,854,0
Gaussian Coeffient249,855,0
Gaussian Coeffient250,856,0
Gaussian Coeffient251,857,0
Gaussian Coeffient252,858,0
Gaussian Coeffient253,859,0
Gaussian Coeffient254,860,0
Gaussian Coeffient255,861,0
Gaussian Coeffient256,862,0
Gaussian Coeffient257,863,0
Gaussian Coeffient258,864,0
Gaussian Coeffient259,865,0
Gaussian Coeffient260,866,0
Gaussian Coeffient261,867,0
Gaussian Coeffient262,868,0
Gaussian Coeffient263,869,0
Gaussian Coeffient264,870,0
Gaussian Coeffient265,871,0
Gaussian Coeffient266,872,0
Gaussian Coeffient267,873,0
Gaussian Coeffient268,874,0
Gaussian Coeffient269,875,0
Gaussian Coeffient270,876,0
Gaussian Coeffient271,877,0
Gaussian Coeffient272,878,0
Gaussian Coeffient273,879,0
Gaussian Coeffient274,880,0
Gaussian Coeffient275,881,0
Gaussian Coeffient276,882,0
Gaussian Coeffient277,883,0
Gaussian Coeffient278,884,0
Gaussian Coeffient279,885,0
Gaussian Coeffient280,886,0
Gaussian Coeffient281,887,0
Gaussian Coeffient282,888,0
Gaussian Coeffient283,889,0
Gaussian Coeffient284,890,0
Gaussian Coeffient285,891,0
Gaussian Coeffient286,892,0
Gaussian Coeffient287,893,0
Gaussian Coeffient288,894,0
Gaussian Coeffient289,895,0
Gaussian Coeffient290,896,0
Gaussian Coeffient291,897,0
Gaussian Coeffient292,898,0
Gaussian Coeffient293,899,0
Gaussian Coeffient294,900,0
Gaussian Coeffient295,901,0
Gaussian Coeffient296,902,0
Gaussian Coeffient297,903,0
Gaussian Coeffient298,904,0
Gaussian Coeffient299,905,0
Gaussian Coeffient300,906,0
Gaussian Coeffient301,907,0
Gaussian Coeffient302,908,0
Gaussian Coeffient303,909,0
Gaussian Coeffient304,910,0
Gaussian Coeffient305,911,0
Gaussian Coeffient306,912,0
Gaussian Coeffient307,913,0
Gaussian Coeffient308,914,0
Gaussian Coeffient309,915,0
Gaussian Coeffient310,916,0
Gaussian Coeffient311,917,0
Gaussian Coeffient312,918,0
Gaussian Coeffient313,919,0
Gaussian Coeffient314,920,0
Gaussian Coeffient315,921,0
Gaussian Coeffient316,922,0
Gaussian Coeffient317,923,0
Gaussian Coeffient318,924,0
Gaussian Coeffient319,925,0
Gaussian Coeffient320,926,0
Gaussian Coeffient321,927,0
Gaussian Coeffient322,928,0
Gaussian Coeffient323,929,0
Gaussian Coeffient324,930,0
Gaussian Coeffient325,931,0
Gaussian Coeffient326,932,0
Gaussian Coeffient327,933,0
Gaussian Coeffient328,934,0
Gaussian Coeffient329,935,0
Gaussian Coeffient330,936,0
Gaussian Coeffient331,937,0
Gaussian Coeffient332,938,0
Gaussian Coeffient333,939,0
Gaussian Coeffient334,940,0
Gaussian Coeffient335,941,0
Gaussian Coeffient336,942,0
Gaussian Coeffient337,943,0
Gaussian Coeffient338,944,0
Gaussian Coeffient339,945,0
Gaussian Coeffient340,946,0
Gaussian Coeffient341,947,0
Gaussian Coeffient342,948,0
Gaussian Coeffient343,949,0
Gaussian Coeffient344,950,0
Gaussian Coeffient345,951,0
Gaussian Coeffient346,952,0
Gaussian Coeffient347,953,0
Gaussian Coeffient348,954,0
Gaussian Coeffient349,955,0
Gaussian Coeffient350,956,0
Gaussian Coeffient351,957,0
Gaussian Coeffient352,958,0
Gaussian Coeffient353,959,0
Gaussian Coeffient354,960,0
Gaussian Coeffient355,961,0
Gaussian Coeffient356,962,0
Gaussian Coeffient357,963,0
Gaussian Coeffient358,964,0
Gaussian Coeffient359,965,0
Gaussian Coeffient360,966,0
Gaussian Coeffient361,967,0
Gaussian Coeffient362,968,0
Gaussian Coeffient363,969,0
Gaussian Coeffient364,970,0
Gaussian Coeffient365,971,0
Gaussian Coeffient366,972,0
Gaussian Coeffient367,973,0
Gaussian Coeffient368,974,0
Gaussian Coeffient369,975,0
Gaussian Coeffient370,976,0
Gaussian Coeffient371,977,0
Gaussian Coeffient372,978,0
Gaussian Coeffient373,979,0
Gaussian Coeffient374,980,0
Gaussian Coeffient375,981,0
Gaussian Coeffient376,982,0
Gaussian Coeffient377,983,0
Gaussian Coeffient378,984,0
Gaussian Coeffient379,985,0
Gaussian Coeffient380,986,0
Gaussian Coeffient381,987,0
Gaussian Coeffient382,988,0
Gaussian Coeffient383,989,0
Gaussian Coeffient384,990,0
Gaussian Coeffient385,991,0
Gaussian Coeffient386,992,0
Gaussian Coeffient387,993,0
Gaussian Coeffient388,994,0
Gaussian Coeffient389,995,0
Gaussian Coeffient390,996,0
Gaussian Coeffient391,997,0
Gaussian Coeffient392,998,0
Gaussian Coeffient393,999,0
Gaussian Coeffient394,1000,0
Gaussian Coeffient395,1001,0
Gaussian Coeffient396,1002,0
Gaussian Coeffient397,1003,0
Gaussian Coeffient398,1004,0
Gaussian Coeffient399,1005,0
Gaussian Coeffient400,1006,0
Gaussian Coeffient401,1007,0
Gaussian Coeffient402,1008,0
Gaussian Coeffient403,1009,0
Gaussian Coeffient404,1010,0
Gaussian Coeffient405,1011,0
Gaussian Coeffient406,1012,0
Gaussian Coeffient407,1013,0
Gaussian Coeffient408,1014,0
Gaussian Coeffient409,1015,0
Gaussian Coeffient410,1016,0
Gaussian Coeffient411,1017,0
Gaussian Coeffient412,1018,0
Gaussian Coeffient413,1019,0
Gaussian Coeffient414,1020,0
Gaussian Coeffient415,1021,0
Gaussian Coeffient416,1022,0
Gaussian Coeffient417,1023,0
Gaussian Coeffient418,1024,0
Gaussian Coeffient419,1025,0
Gaussian Coeffient420,1026,0
Gaussian Coeffient421,1027,0
Gaussian Coeffient422,1028,0
Gaussian Coeffient423,1029,0
Gaussian Coeffient424,1030,0
Gaussian Coeffient425,1031,0
Gaussian Coeffient426,1032,0
Gaussian Coeffient427,1033,0
Gaussian Coeffient428,1034,0
Gaussian Coeffient429,1035,0
Gaussian Coeffient430,1036,0
Gaussian Coeffient431,1037,0
Gaussian Coeffient432,1038,0
Gaussian Coeffient433,1039,0
Gaussian Coeffient434,1040,0
Gaussian Coeffient435,1041,0
Gaussian Coeffient436,1042,0
Gaussian Coeffient437,1043,0
Gaussian Coeffient438,1044,0
Gaussian Coeffient439,1045,0
Gaussian Coeffient440,1046,0
Gaussian Coeffient441,1047,0
Gaussian Coeffient442,1048,0
Gaussian Coeffient443,1049,0
Gaussian Coeffient444,1050,0
Gaussian Coeffient445,1051,0
Gaussian Coeffient446,1052,0
Gaussian Coeffient447,1053,0
Gaussian Coeffient448,1054,0
Gaussian Coeffient449,1055,0
Gaussian Coeffient450,1056,0
Gaussian Coeffient451,1057,0
Gaussian Coeffient452,1058,0
Gaussian Coeffient453,1059,0
Gaussian Coeffient454,1060,0
Gaussian Coeffient455,1061,0
Gaussian Coeffient456,1062,0
Gaussian Coeffient457,1063,0
Gaussian Coeffient458,1064,0
Gaussian Coeffient459,1065,0
Gaussian Coeffient460,1066,0
Gaussian Coeffient461,1067,0
Gaussian Coeffient462,1068,0
Gaussian Coeffient463,1069,0
Gaussian Coeffient464,1070,0
Gaussian Coeffient465,1071,0
Gaussian Coeffient466,1072,0
Gaussian Coeffient467,1073,0
Gaussian Coeffient468,1074,0
Gaussian Coeffient469,1075,0
Gaussian Coeffient470,1076,0
Gaussian Coeffient471,1077,0
Gaussian Coeffient472,1078,0
Gaussian Coeffient473,1079,0
Gaussian Coeffient474,1080,0
Gaussian Coeffient475,1081,0
Gaussian Coeffient476,1082,0
Gaussian Coeffient477,1083,0
Gaussian Coeffient478,1084,0
Gaussian Coeffient479,1085,0
Gaussian Coeffient480,1086,0
Gaussian Coeffient481,1087,0
Gaussian Coeffient482,1088,0
Gaussian Coeffient483,1089,0
Gaussian Coeffient484,1090,0
Gaussian Coeffient485,1091,0
Gaussian Coeffient486,1092,0
Gaussian Coeffient487,1093,0
Gaussian Coeffient488,1094,0
Gaussian Coeffient489,1095,0
Gaussian Coeffient490,1096,0
Gaussian Coeffient491,1097,0
Gaussian Coeffient492,1098,0
Gaussian Coeffient493,1099,0
Gaussian Coeffient494,1100,0
Gaussian Coeffient495,1101,0
Gaussian Coeffient496,1102,0
Gaussian Coeffient497,1103,0
Gaussian Coeffient498,1104,0
Gaussian Coeffient499,1105,0
Gaussian Coeffient500,1106,0
Gaussian Coeffient501,1107,0
Gaussian Coeffient502,1108,0
Gaussian Coeffient503,1109,0
Gaussian Coeffient504,1110,0
Gaussian Coeffient505,1111,0
Gaussian Coeffient506,1112,0
Gaussian Coeffient507,1113,0
Gaussian Coeffient508,1114,0
Gaussian Coeffient509,1115,0
Gaussian Coeffient510,1116,0
Gaussian Coeffient511,1117,0
Envelope Coeffient0,1118,0
Envelope Coeffient1,1119,0
Envelope Coeffient2,1120,0
Envelope Coeffient3,1121,0
Envelope Coeffient4,1122,0
Envelope Coeffient5,1123,0
Envelope Coeffient6,1124,0
Envelope Coeffient7,1125,0
Envelope Coeffient8,1126,0
Envelope Coeffient9,1127,0
Envelope Coeffient10,1128,0
Envelope Coeffient11,1129,0
Envelope Coeffient12,1130,0
Envelope Coeffient13,1131,0
Envelope Coeffient14,1132,0
Envelope Coeffient15,1133,0
Envelope Coeffient16,1134,0
Envelope Coeffient17,1135,0
Envelope Coeffient18,1136,0
Envelope Coeffient19,1137,0
Envelope Coeffient20,1138,0
Envelope Coeffient21,1139,0
Envelope Coeffient22,1140,0
Envelope Coeffient23,1141,0
Envelope Coeffient24,1142,0
Envelope Coeffient25,1143,0
Envelope Coeffient26,1144,0
Envelope Coeffient27,1145,0
Envelope Coeffient28,1146,0
Envelope Coeffient29,1147,0
Envelope Coeffient30,1148,0
Envelope Coeffient31,1149,0
Envelope Coeffient32,1150,0
Envelope Coeffient33,1151,0
Envelope Coeffient34,1152,0
Envelope Coeffient35,1153,0
Envelope Coeffient36,1154,0
Envelope Coeffient37,1155,0
Envelope Coeffient38,1156,0
Envelope Coeffient39,1157,0
Envelope Coeffient40,1158,0
Envelope Coeffient41,1159,0
Envelope Coeffient42,1160,0
Envelope Coeffient43,1161,0
Envelope Coeffient44,1162,0
Envelope Coeffient45,1163,0
Envelope Coeffient46,1164,0
Envelope Coeffient47,1165,0
Envelope Coeffient48,1166,0
Envelope Coeffient49,1167,0
Envelope Coeffient50,1168,0
Envelope Coeffient51,1169,0
Envelope Coeffient52,1170,0
Envelope Coeffient53,1171,0
Envelope Coeffient54,1172,0
Envelope Coeffient55,1173,0
Envelope Coeffient56,1174,0
Envelope Coeffient57,1175,0
Envelope Coeffient58,1176,0
Envelope Coeffient59,1177,0
Envelope Coeffient60,1178,0
Envelope Coeffient61,1179,0
Envelope Coeffient62,1180,0
Envelope Coeffient63,1181,0
Envelope Coeffient64,1182,0
Envelope Coeffient65,1183,0
Envelope Coeffient66,1184,0
Envelope Coeffient67,1185,0
Envelope Coeffient68,1186,0
Envelope Coeffient69,1187,0
Envelope Coeffient70,1188,0
Envelope Coeffient71,1189,0
Envelope Coeffient72,1190,0
Envelope Coeffient73,1191,0
Envelope Coeffient74,1192,0
Envelope Coeffient75,1193,0
Envelope Coeffient76,1194,0
Envelope Coeffient77,1195,0
Envelope Coeffient78,1196,0
Envelope Coeffient79,1197,0
Envelope Coeffient80,1198,0
Envelope Coeffient81,1199,0
Envelope Coeffient82,1200,0
Envelope Coeffient83,1201,0
Envelope Coeffient84,1202,0
Envelope Coeffient85,1203,0
Envelope Coeffient86,1204,0
Envelope Coeffient87,1205,0
Envelope Coeffient88,1206,0
Envelope Coeffient89,1207,0
Envelope Coeffient90,1208,0
Envelope Coeffient91,1209,0
Envelope Coeffient92,1210,0
Envelope Coeffient93,1211,0
Envelope Coeffient94,1212,0
Envelope Coeffient95,1213,0
Envelope Coeffient96,1214,0
Envelope Coeffient97,1215,0
Envelope Coeffient98,1216,0
Envelope Coeffient99,1217,0
Envelope Coeffient100,1218,0
Envelope Coeffient101,1219,0
Envelope Coeffient102,1220,0
Envelope Coeffient103,1221,0
Envelope Coeffient104,1222,0
Envelope Coeffient105,1223,0
Envelope Coeffient106,1224,0
Envelope Coeffient107,1225,0
Envelope Coeffient108,1226,0
Envelope Coeffient109,1227,0
Envelope Coeffient110,1228,0
Envelope Coeffient111,1229,0
Envelope Coeffient112,1230,0
Envelope Coeffient113,1231,0
Envelope Coeffient114,1232,0
Envelope Coeffient115,1233,0
Envelope Coeffient116,1234,0
Envelope Coeffient117,1235,0
Envelope Coeffient118,1236,0
Envelope Coeffient119,1237,0
Envelope Coeffient120,1238,0
Envelope Coeffient121,1239,0
Envelope Coeffient122,1240,0
Envelope Coeffient123,1241,0
Envelope Coeffient124,1242,0
Envelope Coeffient125,1243,0
Envelope Coeffient126,1244,0
Envelope Coeffient127,1245,0
Envelope Coeffient128,1246,0
Envelope Coeffient129,1247,0
Envelope Coeffient130,1248,0
Envelope Coeffient131,1249,0
Envelope Coeffient132,1250,0
Envelope Coeffient133,1251,0
Envelope Coeffient134,1252,0
Envelope Coeffient135,1253,0
Envelope Coeffient136,1254,0
Envelope Coeffient137,1255,0
Envelope Coeffient138,1256,0
Envelope Coeffient139,1257,0
Envelope Coeffient140,1258,0
Envelope Coeffient141,1259,0
Envelope Coeffient142,1260,0
Envelope Coeffient143,1261,0
Envelope Coeffient144,1262,0
Envelope Coeffient145,1263,0
Envelope Coeffient146,1264,0
Envelope Coeffient147,1265,0
Envelope Coeffient148,1266,0
Envelope Coeffient149,1267,0
Envelope Coeffient150,1268,0
Envelope Coeffient151,1269,0
Envelope Coeffient152,1270,0
Envelope Coeffient153,1271,0
Envelope Coeffient154,1272,0
Envelope Coeffient155,1273,0
Envelope Coeffient156,1274,0
Envelope Coeffient157,1275,0
Envelope Coeffient158,1276,0
Envelope Coeffient159,1277,0
Envelope Coeffient160,1278,0
Envelope Coeffient161,1279,0
Envelope Coeffient162,1280,0
Envelope Coeffient163,1281,0
Envelope Coeffient164,1282,0
Envelope Coeffient165,1283,0
Envelope Coeffient166,1284,0
Envelope Coeffient167,1285,0
Envelope Coeffient168,1286,0
Envelope Coeffient169,1287,0
Envelope Coeffient170,1288,0
Envelope Coeffient171,1289,0
Envelope Coeffient172,1290,0
Envelope Coeffient173,1291,0
Envelope Coeffient174,1292,0
Envelope Coeffient175,1293,0
Envelope Coeffient176,1294,0
Envelope Coeffient177,1295,0
Envelope Coeffient178,1296,0
Envelope Coeffient179,1297,0
Envelope Coeffient180,1298,0
Envelope Coeffient181,1299,0
Envelope Coeffient182,1300,0
Envelope Coeffient183,1301,0
Envelope Coeffient184,1302,0
Envelope Coeffient185,1303,0
Envelope Coeffient186,1304,0
Envelope Coeffient187,1305,0
Envelope Coeffient188,1306,0
Envelope Coeffient189,1307,0
Envelope Coeffient190,1308,0
Envelope Coeffient191,1309,0
Envelope Coeffient192,1310,0
Envelope Coeffient193,1311,0
Envelope Coeffient194,1312,0
Envelope Coeffient195,1313,0
Envelope Coeffient196,1314,0
Envelope Coeffient197,1315,0
Envelope Coeffient198,1316,0
Envelope Coeffient199,1317,0
Envelope Coeffient200,1318,0
Envelope Coeffient201,1319,0
Envelope Coeffient202,1320,0
Envelope Coeffient203,1321,0
Envelope Coeffient204,1322,0
Envelope Coeffient205,1323,0
Envelope Coeffient206,1324,0
Envelope Coeffient207,1325,0
Envelope Coeffient208,1326,0
Envelope Coeffient209,1327,0
Envelope Coeffient210,1328,0
Envelope Coeffient211,1329,0
Envelope Coeffient212,1330,0
Envelope Coeffient213,1331,0
Envelope Coeffient214,1332,0
Envelope Coeffient215,1333,0
Envelope Coeffient216,1334,0
Envelope Coeffient217,1335,0
Envelope Coeffient218,1336,0
Envelope Coeffient219,1337,0
Envelope Coeffient220,1338,0
Envelope Coeffient221,1339,0
Envelope Coeffient222,1340,0
Envelope Coeffient223,1341,0
Envelope Coeffient224,1342,0
Envelope Coeffient225,1343,0
Envelope Coeffient226,1344,0
Envelope Coeffient227,1345,0
Envelope Coeffient228,1346,0
Envelope Coeffient229,1347,0
Envelope Coeffient230,1348,0
Envelope Coeffient231,1349,0
Envelope Coeffient232,1350,0
Envelope Coeffient233,1351,0
Envelope Coeffient234,1352,0
Envelope Coeffient235,1353,0
Envelope Coeffient236,1354,0
Envelope Coeffient237,1355,0
Envelope Coeffient238,1356,0
Envelope Coeffient239,1357,0
Envelope Coeffient240,1358,0
Envelope Coeffient241,1359,0
Envelope Coeffient242,1360,0
Envelope Coeffient243,1361,0
Envelope Coeffient244,1362,0
Envelope Coeffient245,1363,0
Envelope Coeffient246,1364,0
Envelope Coeffient247,1365,0
Envelope Coeffient248,1366,0
Envelope Coeffient249,1367,0
Envelope Coeffient250,1368,0
Envelope Coeffient251,1369,0
Envelope Coeffient252,1370,0
Envelope Coeffient253,1371,0
Envelope Coeffient254,1372,0
Envelope Coeffient255,1373,0
Envelope Coeffient256,1374,0
Envelope Coeffient257,1375,0
Envelope Coeffient258,1376,0
Envelope Coeffient259,1377,0
Envelope Coeffient260,1378,0
Envelope Coeffient261,1379,0
Envelope Coeffient262,1380,0
Envelope Coeffient263,1381,0
Envelope Coeffient264,1382,0
Envelope Coeffient265,1383,0
Envelope Coeffient266,1384,0
Envelope Coeffient267,1385,0
Envelope Coeffient268,1386,0
Envelope Coeffient269,1387,0
Envelope Coeffient270,1388,0
Envelope Coeffient271,1389,0
Envelope Coeffient272,1390,0
Envelope Coeffient273,1391,0
Envelope Coeffient274,1392,0
Envelope Coeffient275,1393,0
Envelope Coeffient276,1394,0
Envelope Coeffient277,1395,0
Envelope Coeffient278,1396,0
Envelope Coeffient279,1397,0
Envelope Coeffient280,1398,0
Envelope Coeffient281,1399,0
Envelope Coeffient282,1400,0
Envelope Coeffient283,1401,0
Envelope Coeffient284,1402,0
Envelope Coeffient285,1403,0
Envelope Coeffient286,1404,0
Envelope Coeffient287,1405,0
Envelope Coeffient288,1406,0
Envelope Coeffient289,1407,0
Envelope Coeffient290,1408,0
Envelope Coeffient291,1409,0
Envelope Coeffient292,1410,0
Envelope Coeffient293,1411,0
Envelope Coeffient294,1412,0
Envelope Coeffient295,1413,0
Envelope Coeffient296,1414,0
Envelope Coeffient297,1415,0
Envelope Coeffient298,1416,0
Envelope Coeffient299,1417,0
Envelope Coeffient300,1418,0
Envelope Coeffient301,1419,0
Envelope Coeffient302,1420,0
Envelope Coeffient303,1421,0
Envelope Coeffient304,1422,0
Envelope Coeffient305,1423,0
Envelope Coeffient306,1424,0
Envelope Coeffient307,1425,0
Envelope Coeffient308,1426,0
Envelope Coeffient309,1427,0
Envelope Coeffient310,1428,0
Envelope Coeffient311,1429,0
Envelope Coeffient312,1430,0
Envelope Coeffient313,1431,0
Envelope Coeffient314,1432,0
Envelope Coeffient315,1433,0
Envelope Coeffient316,1434,0
Envelope Coeffient317,1435,0
Envelope Coeffient318,1436,0
Envelope Coeffient319,1437,0
Envelope Coeffient320,1438,0
Envelope Coeffient321,1439,0
Envelope Coeffient322,1440,0
Envelope Coeffient323,1441,0
Envelope Coeffient324,1442,0
Envelope Coeffient325,1443,0
Envelope Coeffient326,1444,0
Envelope Coeffient327,1445,0
Envelope Coeffient328,1446,0
Envelope Coeffient329,1447,0
Envelope Coeffient330,1448,0
Envelope Coeffient331,1449,0
Envelope Coeffient332,1450,0
Envelope Coeffient333,1451,0
Envelope Coeffient334,1452,0
Envelope Coeffient335,1453,0
Envelope Coeffient336,1454,0
Envelope Coeffient337,1455,0
Envelope Coeffient338,1456,0
Envelope Coeffient339,1457,0
Envelope Coeffient340,1458,0
Envelope Coeffient341,1459,0
Envelope Coeffient342,1460,0
Envelope Coeffient343,1461,0
Envelope Coeffient344,1462,0
Envelope Coeffient345,1463,0
Envelope Coeffient346,1464,0
Envelope Coeffient347,1465,0
Envelope Coeffient348,1466,0
Envelope Coeffient349,1467,0
Envelope Coeffient350,1468,0
Envelope Coeffient351,1469,0
Envelope Coeffient352,1470,0
Envelope Coeffient353,1471,0
Envelope Coeffient354,1472,0
Envelope Coeffient355,1473,0
Envelope Coeffient356,1474,0
Envelope Coeffient357,1475,0
Envelope Coeffient358,1476,0
Envelope Coeffient359,1477,0
Envelope Coeffient360,1478,0
Envelope Coeffient361,1479,0
Envelope Coeffient362,1480,0
Envelope Coeffient363,1481,0
Envelope Coeffient364,1482,0
Envelope Coeffient365,1483,0
Envelope Coeffient366,1484,0
Envelope Coeffient367,1485,0
Envelope Coeffient368,1486,0
Envelope Coeffient369,1487,0
Envelope Coeffient370,1488,0
Envelope Coeffient371,1489,0
Envelope Coeffient372,1490,0
Envelope Coeffient373,1491,0
Envelope Coeffient374,1492,0
Envelope Coeffient375,1493,0
Envelope Coeffient376,1494,0
Envelope Coeffient377,1495,0
Envelope Coeffient378,1496,0
Envelope Coeffient379,1497,0
Envelope Coeffient380,1498,0
Envelope Coeffient381,1499,0
Envelope Coeffient382,1500,0
Envelope Coeffient383,1501,0
Envelope Coeffient384,1502,0
Envelope Coeffient385,1503,0
Envelope Coeffient386,1504,0
Envelope Coeffient387,1505,0
Envelope Coeffient388,1506,0
Envelope Coeffient389,1507,0
Envelope Coeffient390,1508,0
Envelope Coeffient391,1509,0
Envelope Coeffient392,1510,0
Envelope Coeffient393,1511,0
Envelope Coeffient394,1512,0
Envelope Coeffient395,1513,0
Envelope Coeffient396,1514,0
Envelope Coeffient397,1515,0
Envelope Coeffient398,1516,0
Envelope Coeffient399,1517,0
Envelope Coeffient400,1518,0
Envelope Coeffient401,1519,0
Envelope Coeffient402,1520,0
Envelope Coeffient403,1521,0
Envelope Coeffient404,1522,0
Envelope Coeffient405,1523,0
Envelope Coeffient406,1524,0
Envelope Coeffient407,1525,0
Envelope Coeffient408,1526,0
Envelope Coeffient409,1527,0
Envelope Coeffient410,1528,0
Envelope Coeffient411,1529,0
Envelope Coeffient412,1530,0
Envelope Coeffient413,1531,0
Envelope Coeffient414,1532,0
Envelope Coeffient415,1533,0
Envelope Coeffient416,1534,0
Envelope Coeffient417,1535,0
Envelope Coeffient418,1536,0
Envelope Coeffient419,1537,0
Envelope Coeffient420,1538,0
Envelope Coeffient421,1539,0
Envelope Coeffient422,1540,0
Envelope Coeffient423,1541,0
Envelope Coeffient424,1542,0
Envelope Coeffient425,1543,0
Envelope Coeffient426,1544,0
Envelope Coeffient427,1545,0
Envelope Coeffient428,1546,0
Envelope Coeffient429,1547,0
Envelope Coeffient430,1548,0
Envelope Coeffient431,1549,0
Envelope Coeffient432,1550,0
Envelope Coeffient433,1551,0
Envelope Coeffient434,1552,0
Envelope Coeffient435,1553,0
Envelope Coeffient436,1554,0
Envelope Coeffient437,1555,0
Envelope Coeffient438,1556,0
Envelope Coeffient439,1557,0
Envelope Coeffient440,1558,0
Envelope Coeffient441,1559,0
Envelope Coeffient442,1560,0
Envelope Coeffient443,1561,0
Envelope Coeffient444,1562,0
Envelope Coeffient445,1563,0
Envelope Coeffient446,1564,0
Envelope Coeffient447,1565,0
Envelope Coeffient448,1566,0
Envelope Coeffient449,1567,0
Envelope Coeffient450,1568,0
Envelope Coeffient451,1569,0
Envelope Coeffient452,1570,0
Envelope Coeffient453,1571,0
Envelope Coeffient454,1572,0
Envelope Coeffient455,1573,0
Envelope Coeffient456,1574,0
Envelope Coeffient457,1575,0
Envelope Coeffient458,1576,0
Envelope Coeffient459,1577,0
Envelope Coeffient460,1578,0
Envelope Coeffient461,1579,0
Envelope Coeffient462,1580,0
Envelope Coeffient463,1581,0
Envelope Coeffient464,1582,0
Envelope Coeffient465,1583,0
Envelope Coeffient466,1584,0
Envelope Coeffient467,1585,0
Envelope Coeffient468,1586,0
Envelope Coeffient469,1587,0
Envelope Coeffient470,1588,0
Envelope Coeffient471,1589,0
Envelope Coeffient472,1590,0
Envelope Coeffient473,1591,0
Envelope Coeffient474,1592,0
Envelope Coeffient475,1593,0
Envelope Coeffient476,1594,0
Envelope Coeffient477,1595,0
Envelope Coeffient478,1596,0
Envelope Coeffient479,1597,0
Envelope Coeffient480,1598,0
Envelope Coeffient481,1599,0
Envelope Coeffient482,1600,0
Envelope Coeffient483,1601,0
Envelope Coeffient484,1602,0
Envelope Coeffient485,1603,0
Envelope Coeffient486,1604,0
Envelope Coeffient487,1605,0
Envelope Coeffient488,1606,0
Envelope Coeffient489,1607,0
Envelope Coeffient490,1608,0
Envelope Coeffient491,1609,0
Envelope Coeffient492,1610,0
Envelope Coeffient493,1611,0
Envelope Coeffient494,1612,0
Envelope Coeffient495,1613,0
Envelope Coeffient496,1614,0
Envelope Coeffient497,1615,0
Envelope Coeffient498,1616,0
Envelope Coeffient499,1617,0
Envelope Coeffient500,1618,0
Envelope Coeffient501,1619,0
Envelope Coeffient502,1620,0
Envelope Coeffient503,1621,0
Envelope Coeffient504,1622,0
Envelope Coeffient505,1623,0
Envelope Coeffient506,1624,0
Envelope Coeffient507,1625,0
Envelope Coeffient508,1626,0
Envelope Coeffient509,1627,0
Envelope Coeffient510,1628,0
Envelope Coeffient511,1629,0
Actual Taps,1630,2
Reserved,1631,0
Start Time,1632,0
Start Gain,1633,0
Step#0,1634,0
GainStep#0,1635,0
Step#1,1636,62500
GainStep#1,1637,0
Step#2,1638,24937500
GainStep#2,1639,0
Step#3,1640,0
GainStep#3,1641,0
Step#4,1642,0
GainStep#4,1643,0
Step#5,1644,0
GainStep#5,1645,0
Step#6,1646,0
GainStep#6,1647,0
Step#7,1648,0
GainStep#7,1649,0
Step#8,1650,0
GainStep#8,1651,0
Step#9,1652,0
GainStep#9,1653,0
Step#10,1654,0
GainStep#10,1655,0
Step#11,1656,0
GainStep#11,1657,0
Step#12,1658,0
GainStep#12,1659,0
Step#13,1660,0
GainStep#13,1661,0
Step#14,1662,0
GainStep#14,1663,0
Step#15,1664,0
GainStep#15,1665,0
Step#16,1666,0
GainStep#16,1667,0
Step#17,1668,0
GainStep#17,1669,0
Step#18,1670,0
GainStep#18,1671,0
Step#19,1672,0
GainStep#19,1673,0
Step#20,1674,0
GainStep#20,1675,0
Step#21,1676,0
GainStep#21,1677,0
Step#22,1678,0
GainStep#22,1679,0
Step#23,1680,0
GainStep#23,1681,0
Step#24,1682,0
GainStep#24,1683,0
Step#25,1684,0
GainStep#25,1685,0
Step#26,1686,0
GainStep#26,1687,0
Step#27,1688,0
GainStep#27,1689,0
Step#28,1690,0
GainStep#28,1691,0
Step#29,1692,0
GainStep#29,1693,0
Step#30,1694,0
GainStep#30,1695,0
Step#31,1696,0
GainStep#31,1697,0
Step#32,1698,0
GainStep#32,1699,0
Step#33,1700,0
GainStep#33,1701,0
Step#34,1702,0
GainStep#34,1703,0
Step#35,1704,0
GainStep#35,1705,0
Step#36,1706,0
GainStep#36,1707,0
Step#37,1708,0
GainStep#37,1709,0
Step#38,1710,0
GainStep#38,1711,0
Step#39,1712,0
GainStep#39,1713,0
Step#40,1714,0
GainStep#40,1715,0
Step#41,1716,0
GainStep#41,1717,0
Step#42,1718,0
GainStep#42,1719,0
Step#43,1720,0
GainStep#43,1721,0
Step#44,1722,0
GainStep#44,1723,0
Step#45,1724,0
GainStep#45,1725,0
Step#46,1726,0
GainStep#46,1727,0
Step#47,1728,0
GainStep#47,1729,0
Step#48,1730,0
GainStep#48,1731,0
Step#49,1732,0
GainStep#49,1733,0
Step#50,1734,0
GainStep#50,1735,0
Step#51,1736,0
GainStep#51,1737,0
Step#52,1738,0
GainStep#52,1739,0
Step#53,1740,0
GainStep#53,1741,0
Step#54,1742,0
GainStep#54,1743,0
Step#55,1744,0
GainStep#55,1745,0
Step#56,1746,0
GainStep#56,1747,0
Step#57,1748,0
GainStep#57,1749,0
Step#58,1750,0
GainStep#58,1751,0
Step#59,1752,0
GainStep#59,1753,0
Step#60,1754,0
GainStep#60,1755,0
Step#61,1756,0
GainStep#61,1757,0
Step#62,1758,0
GainStep#62,1759,0
Total Configuration Size Ch#2,1760,1753
channel_id#2,1761,1
channel_enabled#2,1762,1
Configuration Offset,1763,9
DSP Offset,1764,75
FIR BandPass Offset,1765,87
Gaussian Filter Offset,1766,599
FIR Envelope Offset,1767,1111
DAC Curves Offset,1768,1623
Configuration Parameter Size,1769,66
Sampling Frequency (DIVISOR OF 100MHz),1770,4
Data Window,1771,2500
Delay,1772,0
Gain Analog,1773,0
Gain Digital,1774,1048576
External Multiplexer Enabled,1775,0
Voltage,1776,600
Burst Frequency (Picoseconds),1777,1666
Number Of Cycles (Really Half Number Cycles),1778,2
Number Of Bursts,1779,1
PRF (in terms of clock cycles),1780,4000000
Delay,1781,0
Delta Delay,1782,0
Delta Adding,1783,0
Directional Phasing,1784,1
Magnet Model,1785,1
Pulse Width,1786,0
Initial Delay,1787,80000
Ramp Up Voltage,1788,0
Voltage,1789,0
gate_id,1790,0
gate_enabled,1791,1
start,1792,125
range,1793,250
threshold:,1794,4915
tof algorithm,1795,1
tof_average,1796,2
tof_minimum_thickness,1797,8
threshold_alarm_enabled,1798,0
threshold_alarm_crossing,1799,1
tof_alarm_enabled,1800,0
tof_alarm_type,1801,1
tof_alarm_crossing,1802,1
tof_alarm_minimum_value,1803,0
tof_alarm_maximum_value,1804,25600
gate_id,1805,0
gate_enabled,1806,1
start,1807,125
range,1808,250
threshold:,1809,4915
tof algorithm,1810,1
tof_average,1811,2
tof_minimum_thickness,1812,8
threshold_alarm_enabled,1813,0
threshold_alarm_crossing,1814,1
tof_alarm_enabled,1815,0
tof_alarm_type,1816,1
tof_alarm_crossing,1817,1
tof_alarm_minimum_value,1818,0
tof_alarm_maximum_value,1819,25600
gate_id,1820,0
gate_enabled,1821,1
start,1822,125
range,1823,250
threshold:,1824,4915
tof algorithm,1825,1
tof_average,1826,2
tof_minimum_thickness,1827,8
threshold_alarm_enabled,1828,0
threshold_alarm_crossing,1829,1
tof_alarm_enabled,1830,0
tof_alarm_type,1831,1
tof_alarm_crossing,1832,1
tof_alarm_minimum_value,1833,0
tof_alarm_maximum_value,1834,25600
average,1835,0
noise_reduction_filter,1836,0
bandpass enabled,1837,0
FIR BandPass Filter Coeff ,1838,512
FIR BandPass Filter L ,1839,0
gaussian enabled,1840,0
Gaussian Filter Coeff ,1841,512
Gaussian Filter L ,1842,0
envelope enabled,1843,0
Envelope Filter Coeff ,1844,512
Envelope Filter L ,1845,0
Analog Filter Selection,1846,0
BandPass Coeffient0,1847,0
BandPass Coeffient1,1848,0
BandPass Coeffient2,1849,0
BandPass Coeffient3,1850,0
BandPass Coeffient4,1851,0
BandPass Coeffient5,1852,0
BandPass Coeffient6,1853,0
BandPass Coeffient7,1854,0
BandPass Coeffient8,1855,0
BandPass Coeffient9,1856,0
BandPass Coeffient10,1857,0
BandPass Coeffient11,1858,0
BandPass Coeffient12,1859,0
BandPass Coeffient13,1860,0
BandPass Coeffient14,1861,0
BandPass Coeffient15,1862,0
BandPass Coeffient16,1863,0
BandPass Coeffient17,1864,0
BandPass Coeffient18,1865,0
BandPass Coeffient19,1866,0
BandPass Coeffient20,1867,0
BandPass Coeffient21,1868,0
BandPass Coeffient22,1869,0
BandPass Coeffient23,1870,0
BandPass Coeffient24,1871,0
BandPass Coeffient25,1872,0
BandPass Coeffient26,1873,0
BandPass Coeffient27,1874,0
BandPass Coeffient28,1875,0
BandPass Coeffient29,1876,0
BandPass Coeffient30,1877,0
BandPass Coeffient31,1878,0
BandPass Coeffient32,1879,0
BandPass Coeffient33,1880,0
BandPass Coeffient34,1881,0
BandPass Coeffient35,1882,0
BandPass Coeffient36,1883,0
BandPass Coeffient37,1884,0
BandPass Coeffient38,1885,0
BandPass Coeffient39,1886,0
BandPass Coeffient40,1887,0
BandPass Coeffient41,1888,0
BandPass Coeffient42,1889,0
BandPass Coeffient43,1890,0
BandPass Coeffient44,1891,0
BandPass Coeffient45,1892,0
BandPass Coeffient46,1893,0
BandPass Coeffient47,1894,0
BandPass Coeffient48,1895,0
BandPass Coeffient49,1896,0
BandPass Coeffient50,1897,0
BandPass Coeffient51,1898,0
BandPass Coeffient52,1899,0
BandPass Coeffient53,1900,0
BandPass Coeffient54,1901,0
BandPass Coeffient55,1902,0
BandPass Coeffient56,1903,0
BandPass Coeffient57,1904,0
BandPass Coeffient58,1905,0
BandPass Coeffient59,1906,0
BandPass Coeffient60,1907,0
BandPass Coeffient61,1908,0
BandPass Coeffient62,1909,0
BandPass Coeffient63,1910,0
BandPass Coeffient64,1911,0
BandPass Coeffient65,1912,0
BandPass Coeffient66,1913,0
BandPass Coeffient67,1914,0
BandPass Coeffient68,1915,0
BandPass Coeffient69,1916,0
BandPass Coeffient70,1917,0
BandPass Coeffient71,1918,0
BandPass Coeffient72,1919,0
BandPass Coeffient73,1920,0
BandPass Coeffient74,1921,0
BandPass Coeffient75,1922,0
BandPass Coeffient76,1923,0
BandPass Coeffient77,1924,0
BandPass Coeffient78,1925,0
BandPass Coeffient79,1926,0
BandPass Coeffient80,1927,0
BandPass Coeffient81,1928,0
BandPass Coeffient82,1929,0
BandPass Coeffient83,1930,0
BandPass Coeffient84,1931,0
BandPass Coeffient85,1932,0
BandPass Coeffient86,1933,0
BandPass Coeffient87,1934,0
BandPass Coeffient88,1935,0
BandPass Coeffient89,1936,0
BandPass Coeffient90,1937,0
BandPass Coeffient91,1938,0
BandPass Coeffient92,1939,0
BandPass Coeffient93,1940,0
BandPass Coeffient94,1941,0
BandPass Coeffient95,1942,0
BandPass Coeffient96,1943,0
BandPass Coeffient97,1944,0
BandPass Coeffient98,1945,0
BandPass Coeffient99,1946,0
BandPass Coeffient100,1947,0
BandPass Coeffient101,1948,0
BandPass Coeffient102,1949,0
BandPass Coeffient103,1950,0
BandPass Coeffient104,1951,0
BandPass Coeffient105,1952,0
BandPass Coeffient106,1953,0
BandPass Coeffient107,1954,0
BandPass Coeffient108,1955,0
BandPass Coeffient109,1956,0
BandPass Coeffient110,1957,0
BandPass Coeffient111,1958,0
BandPass Coeffient112,1959,0
BandPass Coeffient113,1960,0
BandPass Coeffient114,1961,0
BandPass Coeffient115,1962,0
BandPass Coeffient116,1963,0
BandPass Coeffient117,1964,0
BandPass Coeffient118,1965,0
BandPass Coeffient119,1966,0
BandPass Coeffient120,1967,0
BandPass Coeffient121,1968,0
BandPass Coeffient122,1969,0
BandPass Coeffient123,1970,0
BandPass Coeffient124,1971,0
BandPass Coeffient125,1972,0
BandPass Coeffient126,1973,0
BandPass Coeffient127,1974,0
BandPass Coeffient128,1975,0
BandPass Coeffient129,1976,0
BandPass Coeffient130,1977,0
BandPass Coeffient131,1978,0
BandPass Coeffient132,1979,0
BandPass Coeffient133,1980,0
BandPass Coeffient134,1981,0
BandPass Coeffient135,1982,0
BandPass Coeffient136,1983,0
BandPass Coeffient137,1984,0
BandPass Coeffient138,1985,0
BandPass Coeffient139,1986,0
BandPass Coeffient140,1987,0
BandPass Coeffient141,1988,0
BandPass Coeffient142,1989,0
BandPass Coeffient143,1990,0
BandPass Coeffient144,1991,0
BandPass Coeffient145,1992,0
BandPass Coeffient146,1993,0
BandPass Coeffient147,1994,0
BandPass Coeffient148,1995,0
BandPass Coeffient149,1996,0
BandPass Coeffient150,1997,0
BandPass Coeffient151,1998,0
BandPass Coeffient152,1999,0
BandPass Coeffient153,2000,0
BandPass Coeffient154,2001,0
BandPass Coeffient155,2002,0
BandPass Coeffient156,2003,0
BandPass Coeffient157,2004,0
BandPass Coeffient158,2005,0
BandPass Coeffient159,2006,0
BandPass Coeffient160,2007,0
BandPass Coeffient161,2008,0
BandPass Coeffient162,2009,0
BandPass Coeffient163,2010,0
BandPass Coeffient164,2011,0
BandPass Coeffient165,2012,0
BandPass Coeffient166,2013,0
BandPass Coeffient167,2014,0
BandPass Coeffient168,2015,0
BandPass Coeffient169,2016,0
BandPass Coeffient170,2017,0
BandPass Coeffient171,2018,0
BandPass Coeffient172,2019,0
BandPass Coeffient173,2020,0
BandPass Coeffient174,2021,0
BandPass Coeffient175,2022,0
BandPass Coeffient176,2023,0
BandPass Coeffient177,2024,0
BandPass Coeffient178,2025,0
BandPass Coeffient179,2026,0
BandPass Coeffient180,2027,0
BandPass Coeffient181,2028,0
BandPass Coeffient182,2029,0
BandPass Coeffient183,2030,0
BandPass Coeffient184,2031,0
BandPass Coeffient185,2032,0
BandPass Coeffient186,2033,0
BandPass Coeffient187,2034,0
BandPass Coeffient188,2035,0
BandPass Coeffient189,2036,0
BandPass Coeffient190,2037,0
BandPass Coeffient191,2038,0
BandPass Coeffient192,2039,0
BandPass Coeffient193,2040,0
BandPass Coeffient194,2041,0
BandPass Coeffient195,2042,0
BandPass Coeffient196,2043,0
BandPass Coeffient197,2044,0
BandPass Coeffient198,2045,0
BandPass Coeffient199,2046,0
BandPass Coeffient200,2047,0
BandPass Coeffient201,2048,0
BandPass Coeffient202,2049,0
BandPass Coeffient203,2050,0
BandPass Coeffient204,2051,0
BandPass Coeffient205,2052,0
BandPass Coeffient206,2053,0
BandPass Coeffient207,2054,0
BandPass Coeffient208,2055,0
BandPass Coeffient209,2056,0
BandPass Coeffient210,2057,0
BandPass Coeffient211,2058,0
BandPass Coeffient212,2059,0
BandPass Coeffient213,2060,0
BandPass Coeffient214,2061,0
BandPass Coeffient215,2062,0
BandPass Coeffient216,2063,0
BandPass Coeffient217,2064,0
BandPass Coeffient218,2065,0
BandPass Coeffient219,2066,0
BandPass Coeffient220,2067,0
BandPass Coeffient221,2068,0
BandPass Coeffient222,2069,0
BandPass Coeffient223,2070,0
BandPass Coeffient224,2071,0
BandPass Coeffient225,2072,0
BandPass Coeffient226,2073,0
BandPass Coeffient227,2074,0
BandPass Coeffient228,2075,0
BandPass Coeffient229,2076,0
BandPass Coeffient230,2077,0
BandPass Coeffient231,2078,0
BandPass Coeffient232,2079,0
BandPass Coeffient233,2080,0
BandPass Coeffient234,2081,0
BandPass Coeffient235,2082,0
BandPass Coeffient236,2083,0
BandPass Coeffient237,2084,0
BandPass Coeffient238,2085,0
BandPass Coeffient239,2086,0
BandPass Coeffient240,2087,0
BandPass Coeffient241,2088,0
BandPass Coeffient242,2089,0
BandPass Coeffient243,2090,0
BandPass Coeffient244,2091,0
BandPass Coeffient245,2092,0
BandPass Coeffient246,2093,0
BandPass Coeffient247,2094,0
BandPass Coeffient248,2095,0
BandPass Coeffient249,2096,0
BandPass Coeffient250,2097,0
BandPass Coeffient251,2098,0
BandPass Coeffient252,2099,0
BandPass Coeffient253,2100,0
BandPass Coeffient254,2101,0
BandPass Coeffient255,2102,0
BandPass Coeffient256,2103,0
BandPass Coeffient257,2104,0
BandPass Coeffient258,2105,0
BandPass Coeffient259,2106,0
BandPass Coeffient260,2107,0
BandPass Coeffient261,2108,0
BandPass Coeffient262,2109,0
BandPass Coeffient263,2110,0
BandPass Coeffient264,2111,0
BandPass Coeffient265,2112,0
BandPass Coeffient266,2113,0
BandPass Coeffient267,2114,0
BandPass Coeffient268,2115,0
BandPass Coeffient269,2116,0
BandPass Coeffient270,2117,0
BandPass Coeffient271,2118,0
BandPass Coeffient272,2119,0
BandPass Coeffient273,2120,0
BandPass Coeffient274,2121,0
BandPass Coeffient275,2122,0
BandPass Coeffient276,2123,0
BandPass Coeffient277,2124,0
BandPass Coeffient278,2125,0
BandPass Coeffient279,2126,0
BandPass Coeffient280,2127,0
BandPass Coeffient281,2128,0
BandPass Coeffient282,2129,0
BandPass Coeffient283,2130,0
BandPass Coeffient284,2131,0
BandPass Coeffient285,2132,0
BandPass Coeffient286,2133,0
BandPass Coeffient287,2134,0
BandPass Coeffient288,2135,0
BandPass Coeffient289,2136,0
BandPass Coeffient290,2137,0
BandPass Coeffient291,2138,0
BandPass Coeffient292,2139,0
BandPass Coeffient293,2140,0
BandPass Coeffient294,2141,0
BandPass Coeffient295,2142,0
BandPass Coeffient296,2143,0
BandPass Coeffient297,2144,0
BandPass Coeffient298,2145,0
BandPass Coeffient299,2146,0
BandPass Coeffient300,2147,0
BandPass Coeffient301,2148,0
BandPass Coeffient302,2149,0
BandPass Coeffient303,2150,0
BandPass Coeffient304,2151,0
BandPass Coeffient305,2152,0
BandPass Coeffient306,2153,0
BandPass Coeffient307,2154,0
BandPass Coeffient308,2155,0
BandPass Coeffient309,2156,0
BandPass Coeffient310,2157,0
BandPass Coeffient311,2158,0
BandPass Coeffient312,2159,0
BandPass Coeffient313,2160,0
BandPass Coeffient314,2161,0
BandPass Coeffient315,2162,0
BandPass Coeffient316,2163,0
BandPass Coeffient317,2164,0
BandPass Coeffient318,2165,0
BandPass Coeffient319,2166,0
BandPass Coeffient320,2167,0
BandPass Coeffient321,2168,0
BandPass Coeffient322,2169,0
BandPass Coeffient323,2170,0
BandPass Coeffient324,2171,0
BandPass Coeffient325,2172,0
BandPass Coeffient326,2173,0
BandPass Coeffient327,2174,0
BandPass Coeffient328,2175,0
BandPass Coeffient329,2176,0
BandPass Coeffient330,2177,0
BandPass Coeffient331,2178,0
BandPass Coeffient332,2179,0
BandPass Coeffient333,2180,0
BandPass Coeffient334,2181,0
BandPass Coeffient335,2182,0
BandPass Coeffient336,2183,0
BandPass Coeffient337,2184,0
BandPass Coeffient338,2185,0
BandPass Coeffient339,2186,0
BandPass Coeffient340,2187,0
BandPass Coeffient341,2188,0
BandPass Coeffient342,2189,0
BandPass Coeffient343,2190,0
BandPass Coeffient344,2191,0
BandPass Coeffient345,2192,0
BandPass Coeffient346,2193,0
BandPass Coeffient347,2194,0
BandPass Coeffient348,2195,0
BandPass Coeffient349,2196,0
BandPass Coeffient350,2197,0
BandPass Coeffient351,2198,0
BandPass Coeffient352,2199,0
BandPass Coeffient353,2200,0
BandPass Coeffient354,2201,0
BandPass Coeffient355,2202,0
BandPass Coeffient356,2203,0
BandPass Coeffient357,2204,0
BandPass Coeffient358,2205,0
BandPass Coeffient359,2206,0
BandPass Coeffient360,2207,0
BandPass Coeffient361,2208,0
BandPass Coeffient362,2209,0
BandPass Coeffient363,2210,0
BandPass Coeffient364,2211,0
BandPass Coeffient365,2212,0
BandPass Coeffient366,2213,0
BandPass Coeffient367,2214,0
BandPass Coeffient368,2215,0
BandPass Coeffient369,2216,0
BandPass Coeffient370,2217,0
BandPass Coeffient371,2218,0
BandPass Coeffient372,2219,0
BandPass Coeffient373,2220,0
BandPass Coeffient374,2221,0
BandPass Coeffient375,2222,0
BandPass Coeffient376,2223,0
BandPass Coeffient377,2224,0
BandPass Coeffient378,2225,0
BandPass Coeffient379,2226,0
BandPass Coeffient380,2227,0
BandPass Coeffient381,2228,0
BandPass Coeffient382,2229,0
BandPass Coeffient383,2230,0
BandPass Coeffient384,2231,0
BandPass Coeffient385,2232,0
BandPass Coeffient386,2233,0
BandPass Coeffient387,2234,0
BandPass Coeffient388,2235,0
BandPass Coeffient389,2236,0
BandPass Coeffient390,2237,0
BandPass Coeffient391,2238,0
BandPass Coeffient392,2239,0
BandPass Coeffient393,2240,0
BandPass Coeffient394,2241,0
BandPass Coeffient395,2242,0
BandPass Coeffient396,2243,0
BandPass Coeffient397,2244,0
BandPass Coeffient398,2245,0
BandPass Coeffient399,2246,0
BandPass Coeffient400,2247,0
BandPass Coeffient401,2248,0
BandPass Coeffient402,2249,0
BandPass Coeffient403,2250,0
BandPass Coeffient404,2251,0
BandPass Coeffient405,2252,0
BandPass Coeffient406,2253,0
BandPass Coeffient407,2254,0
BandPass Coeffient408,2255,0
BandPass Coeffient409,2256,0
BandPass Coeffient410,2257,0
BandPass Coeffient411,2258,0
BandPass Coeffient412,2259,0
BandPass Coeffient413,2260,0
BandPass Coeffient414,2261,0
BandPass Coeffient415,2262,0
BandPass Coeffient416,2263,0
BandPass Coeffient417,2264,0
BandPass Coeffient418,2265,0
BandPass Coeffient419,2266,0
BandPass Coeffient420,2267,0
BandPass Coeffient421,2268,0
BandPass Coeffient422,2269,0
BandPass Coeffient423,2270,0
BandPass Coeffient424,2271,0
BandPass Coeffient425,2272,0
BandPass Coeffient426,2273,0
BandPass Coeffient427,2274,0
BandPass Coeffient428,2275,0
BandPass Coeffient429,2276,0
BandPass Coeffient430,2277,0
BandPass Coeffient431,2278,0
BandPass Coeffient432,2279,0
BandPass Coeffient433,2280,0
BandPass Coeffient434,2281,0
BandPass Coeffient435,2282,0
BandPass Coeffient436,2283,0
BandPass Coeffient437,2284,0
BandPass Coeffient438,2285,0
BandPass Coeffient439,2286,0
BandPass Coeffient440,2287,0
BandPass Coeffient441,2288,0
BandPass Coeffient442,2289,0
BandPass Coeffient443,2290,0
BandPass Coeffient444,2291,0
BandPass Coeffient445,2292,0
BandPass Coeffient446,2293,0
BandPass Coeffient447,2294,0
BandPass Coeffient448,2295,0
BandPass Coeffient449,2296,0
BandPass Coeffient450,2297,0
BandPass Coeffient451,2298,0
BandPass Coeffient452,2299,0
BandPass Coeffient453,2300,0
BandPass Coeffient454,2301,0
BandPass Coeffient455,2302,0
BandPass Coeffient456,2303,0
BandPass Coeffient457,2304,0
BandPass Coeffient458,2305,0
BandPass Coeffient459,2306,0
BandPass Coeffient460,2307,0
BandPass Coeffient461,2308,0
BandPass Coeffient462,2309,0
BandPass Coeffient463,2310,0
BandPass Coeffient464,2311,0
BandPass Coeffient465,2312,0
BandPass Coeffient466,2313,0
BandPass Coeffient467,2314,0
BandPass Coeffient468,2315,0
BandPass Coeffient469,2316,0
BandPass Coeffient470,2317,0
BandPass Coeffient471,2318,0
BandPass Coeffient472,2319,0
BandPass Coeffient473,2320,0
BandPass Coeffient474,2321,0
BandPass Coeffient475,2322,0
BandPass Coeffient476,2323,0
BandPass Coeffient477,2324,0
BandPass Coeffient478,2325,0
BandPass Coeffient479,2326,0
BandPass Coeffient480,2327,0
BandPass Coeffient481,2328,0
BandPass Coeffient482,2329,0
BandPass Coeffient483,2330,0
BandPass Coeffient484,2331,0
BandPass Coeffient485,2332,0
BandPass Coeffient486,2333,0
BandPass Coeffient487,2334,0
BandPass Coeffient488,2335,0
BandPass Coeffient489,2336,0
BandPass Coeffient490,2337,0
BandPass Coeffient491,2338,0
BandPass Coeffient492,2339,0
BandPass Coeffient493,2340,0
BandPass Coeffient494,2341,0
BandPass Coeffient495,2342,0
BandPass Coeffient496,2343,0
BandPass Coeffient497,2344,0
BandPass Coeffient498,2345,0
BandPass Coeffient499,2346,0
BandPass Coeffient500,2347,0
BandPass Coeffient501,2348,0
BandPass Coeffient502,2349,0
BandPass Coeffient503,2350,0
BandPass Coeffient504,2351,0
BandPass Coeffient505,2352,0
BandPass Coeffient506,2353,0
BandPass Coeffient507,2354,0
BandPass Coeffient508,2355,0
BandPass Coeffient509,2356,0
BandPass Coeffient510,2357,0
BandPass Coeffient511,2358,0
Gaussian Coeffient0,2359,0
Gaussian Coeffient1,2360,0
Gaussian Coeffient2,2361,0
Gaussian Coeffient3,2362,0
Gaussian Coeffient4,2363,0
Gaussian Coeffient5,2364,0
Gaussian Coeffient6,2365,0
Gaussian Coeffient7,2366,0
Gaussian Coeffient8,2367,0
Gaussian Coeffient9,2368,0
Gaussian Coeffient10,2369,0
Gaussian Coeffient11,2370,0
Gaussian Coeffient12,2371,0
Gaussian Coeffient13,2372,0
Gaussian Coeffient14,2373,0
Gaussian Coeffient15,2374,0
Gaussian Coeffient16,2375,0
Gaussian Coeffient17,2376,0
Gaussian Coeffient18,2377,0
Gaussian Coeffient19,2378,0
Gaussian Coeffient20,2379,0
Gaussian Coeffient21,2380,0
Gaussian Coeffient22,2381,0
Gaussian Coeffient23,2382,0
Gaussian Coeffient24,2383,0
Gaussian Coeffient25,2384,0
Gaussian Coeffient26,2385,0
Gaussian Coeffient27,2386,0
Gaussian Coeffient28,2387,0
Gaussian Coeffient29,2388,0
Gaussian Coeffient30,2389,0
Gaussian Coeffient31,2390,0
Gaussian Coeffient32,2391,0
Gaussian Coeffient33,2392,0
Gaussian Coeffient34,2393,0
Gaussian Coeffient35,2394,0
Gaussian Coeffient36,2395,0
Gaussian Coeffient37,2396,0
Gaussian Coeffient38,2397,0
Gaussian Coeffient39,2398,0
Gaussian Coeffient40,2399,0
Gaussian Coeffient41,2400,0
Gaussian Coeffient42,2401,0
Gaussian Coeffient43,2402,0
Gaussian Coeffient44,2403,0
Gaussian Coeffient45,2404,0
Gaussian Coeffient46,2405,0
Gaussian Coeffient47,2406,0
Gaussian Coeffient48,2407,0
Gaussian Coeffient49,2408,0
Gaussian Coeffient50,2409,0
Gaussian Coeffient51,2410,0
Gaussian Coeffient52,2411,0
Gaussian Coeffient53,2412,0
Gaussian Coeffient54,2413,0
Gaussian Coeffient55,2414,0
Gaussian Coeffient56,2415,0
Gaussian Coeffient57,2416,0
Gaussian Coeffient58,2417,0
Gaussian Coeffient59,2418,0
Gaussian Coeffient60,2419,0
Gaussian Coeffient61,2420,0
Gaussian Coeffient62,2421,0
Gaussian Coeffient63,2422,0
Gaussian Coeffient64,2423,0
Gaussian Coeffient65,2424,0
Gaussian Coeffient66,2425,0
Gaussian Coeffient67,2426,0
Gaussian Coeffient68,2427,0
Gaussian Coeffient69,2428,0
Gaussian Coeffient70,2429,0
Gaussian Coeffient71,2430,0
Gaussian Coeffient72,2431,0
Gaussian Coeffient73,2432,0
Gaussian Coeffient74,2433,0
Gaussian Coeffient75,2434,0
Gaussian Coeffient76,2435,0
Gaussian Coeffient77,2436,0
Gaussian Coeffient78,2437,0
Gaussian Coeffient79,2438,0
Gaussian Coeffient80,2439,0
Gaussian Coeffient81,2440,0
Gaussian Coeffient82,2441,0
Gaussian Coeffient83,2442,0
Gaussian Coeffient84,2443,0
Gaussian Coeffient85,2444,0
Gaussian Coeffient86,2445,0
Gaussian Coeffient87,2446,0
Gaussian Coeffient88,2447,0
Gaussian Coeffient89,2448,0
Gaussian Coeffient90,2449,0
Gaussian Coeffient91,2450,0
Gaussian Coeffient92,2451,0
Gaussian Coeffient93,2452,0
Gaussian Coeffient94,2453,0
Gaussian Coeffient95,2454,0
Gaussian Coeffient96,2455,0
Gaussian Coeffient97,2456,0
Gaussian Coeffient98,2457,0
Gaussian Coeffient99,2458,0
Gaussian Coeffient100,2459,0
Gaussian Coeffient101,2460,0
Gaussian Coeffient102,2461,0
Gaussian Coeffient103,2462,0
Gaussian Coeffient104,2463,0
Gaussian Coeffient105,2464,0
Gaussian Coeffient106,2465,0
Gaussian Coeffient107,2466,0
Gaussian Coeffient108,2467,0
Gaussian Coeffient109,2468,0
Gaussian Coeffient110,2469,0
Gaussian Coeffient111,2470,0
Gaussian Coeffient112,2471,0
Gaussian Coeffient113,2472,0
Gaussian Coeffient114,2473,0
Gaussian Coeffient115,2474,0
Gaussian Coeffient116,2475,0
Gaussian Coeffient117,2476,0
Gaussian Coeffient118,2477,0
Gaussian Coeffient119,2478,0
Gaussian Coeffient120,2479,0
Gaussian Coeffient121,2480,0
Gaussian Coeffient122,2481,0
Gaussian Coeffient123,2482,0
Gaussian Coeffient124,2483,0
Gaussian Coeffient125,2484,0
Gaussian Coeffient126,2485,0
Gaussian Coeffient127,2486,0
Gaussian Coeffient128,2487,0
Gaussian Coeffient129,2488,0
Gaussian Coeffient130,2489,0
Gaussian Coeffient131,2490,0
Gaussian Coeffient132,2491,0
Gaussian Coeffient133,2492,0
Gaussian Coeffient134,2493,0
Gaussian Coeffient135,2494,0
Gaussian Coeffient136,2495,0
Gaussian Coeffient137,2496,0
Gaussian Coeffient138,2497,0
Gaussian Coeffient139,2498,0
Gaussian Coeffient140,2499,0
Gaussian Coeffient141,2500,0
Gaussian Coeffient142,2501,0
Gaussian Coeffient143,2502,0
Gaussian Coeffient144,2503,0
Gaussian Coeffient145,2504,0
Gaussian Coeffient146,2505,0
Gaussian Coeffient147,2506,0
Gaussian Coeffient148,2507,0
Gaussian Coeffient149,2508,0
Gaussian Coeffient150,2509,0
Gaussian Coeffient151,2510,0
Gaussian Coeffient152,2511,0
Gaussian Coeffient153,2512,0
Gaussian Coeffient154,2513,0
Gaussian Coeffient155,2514,0
Gaussian Coeffient156,2515,0
Gaussian Coeffient157,2516,0
Gaussian Coeffient158,2517,0
Gaussian Coeffient159,2518,0
Gaussian Coeffient160,2519,0
Gaussian Coeffient161,2520,0
Gaussian Coeffient162,2521,0
Gaussian Coeffient163,2522,0
Gaussian Coeffient164,2523,0
Gaussian Coeffient165,2524,0
Gaussian Coeffient166,2525,0
Gaussian Coeffient167,2526,0
Gaussian Coeffient168,2527,0
Gaussian Coeffient169,2528,0
Gaussian Coeffient170,2529,0
Gaussian Coeffient171,2530,0
Gaussian Coeffient172,2531,0
Gaussian Coeffient173,2532,0
Gaussian Coeffient174,2533,0
Gaussian Coeffient175,2534,0
Gaussian Coeffient176,2535,0
Gaussian Coeffient177,2536,0
Gaussian Coeffient178,2537,0
Gaussian Coeffient179,2538,0
Gaussian Coeffient180,2539,0
Gaussian Coeffient181,2540,0
Gaussian Coeffient182,2541,0
Gaussian Coeffient183,2542,0
Gaussian Coeffient184,2543,0
Gaussian Coeffient185,2544,0
Gaussian Coeffient186,2545,0
Gaussian Coeffient187,2546,0
Gaussian Coeffient188,2547,0
Gaussian Coeffient189,2548,0
Gaussian Coeffient190,2549,0
Gaussian Coeffient191,2550,0
Gaussian Coeffient192,2551,0
Gaussian Coeffient193,2552,0
Gaussian Coeffient194,2553,0
Gaussian Coeffient195,2554,0
Gaussian Coeffient196,2555,0
Gaussian Coeffient197,2556,0
Gaussian Coeffient198,2557,0
Gaussian Coeffient199,2558,0
Gaussian Coeffient200,2559,0
Gaussian Coeffient201,2560,0
Gaussian Coeffient202,2561,0
Gaussian Coeffient203,2562,0
Gaussian Coeffient204,2563,0
Gaussian Coeffient205,2564,0
Gaussian Coeffient206,2565,0
Gaussian Coeffient207,2566,0
Gaussian Coeffient208,2567,0
Gaussian Coeffient209,2568,0
Gaussian Coeffient210,2569,0
Gaussian Coeffient211,2570,0
Gaussian Coeffient212,2571,0
Gaussian Coeffient213,2572,0
Gaussian Coeffient214,2573,0
Gaussian Coeffient215,2574,0
Gaussian Coeffient216,2575,0
Gaussian Coeffient217,2576,0
Gaussian Coeffient218,2577,0
Gaussian Coeffient219,2578,0
Gaussian Coeffient220,2579,0
Gaussian Coeffient221,2580,0
Gaussian Coeffient222,2581,0
Gaussian Coeffient223,2582,0
Gaussian Coeffient224,2583,0
Gaussian Coeffient225,2584,0
Gaussian Coeffient226,2585,0
Gaussian Coeffient227,2586,0
Gaussian Coeffient228,2587,0
Gaussian Coeffient229,2588,0
Gaussian Coeffient230,2589,0
Gaussian Coeffient231,2590,0
Gaussian Coeffient232,2591,0
Gaussian Coeffient233,2592,0
Gaussian Coeffient234,2593,0
Gaussian Coeffient235,2594,0
Gaussian Coeffient236,2595,0
Gaussian Coeffient237,2596,0
Gaussian Coeffient238,2597,0
Gaussian Coeffient239,2598,0
Gaussian Coeffient240,2599,0
Gaussian Coeffient241,2600,0
Gaussian Coeffient242,2601,0
Gaussian Coeffient243,2602,0
Gaussian Coeffient244,2603,0
Gaussian Coeffient245,2604,0
Gaussian Coeffient246,2605,0
Gaussian Coeffient247,2606,0
Gaussian Coeffient248,2607,0
Gaussian Coeffient249,2608,0
Gaussian Coeffient250,2609,0
Gaussian Coeffient251,2610,0
Gaussian Coeffient252,2611,0
Gaussian Coeffient253,2612,0
Gaussian Coeffient254,2613,0
Gaussian Coeffient255,2614,0
Gaussian Coeffient256,2615,0
Gaussian Coeffient257,2616,0
Gaussian Coeffient258,2617,0
Gaussian Coeffient259,2618,0
Gaussian Coeffient260,2619,0
Gaussian Coeffient261,2620,0
Gaussian Coeffient262,2621,0
Gaussian Coeffient263,2622,0
Gaussian Coeffient264,2623,0
Gaussian Coeffient265,2624,0
Gaussian Coeffient266,2625,0
Gaussian Coeffient267,2626,0
Gaussian Coeffient268,2627,0
Gaussian Coeffient269,2628,0
Gaussian Coeffient270,2629,0
Gaussian Coeffient271,2630,0
Gaussian Coeffient272,2631,0
Gaussian Coeffient273,2632,0
Gaussian Coeffient274,2633,0
Gaussian Coeffient275,2634,0
Gaussian Coeffient276,2635,0
Gaussian Coeffient277,2636,0
Gaussian Coeffient278,2637,0
Gaussian Coeffient279,2638,0
Gaussian Coeffient280,2639,0
Gaussian Coeffient281,2640,0
Gaussian Coeffient282,2641,0
Gaussian Coeffient283,2642,0
Gaussian Coeffient284,2643,0
Gaussian Coeffient285,2644,0
Gaussian Coeffient286,2645,0
Gaussian Coeffient287,2646,0
Gaussian Coeffient288,2647,0
Gaussian Coeffient289,2648,0
Gaussian Coeffient290,2649,0
Gaussian Coeffient291,2650,0
Gaussian Coeffient292,2651,0
Gaussian Coeffient293,2652,0
Gaussian Coeffient294,2653,0
Gaussian Coeffient295,2654,0
Gaussian Coeffient296,2655,0
Gaussian Coeffient297,2656,0
Gaussian Coeffient298,2657,0
Gaussian Coeffient299,2658,0
Gaussian Coeffient300,2659,0
Gaussian Coeffient301,2660,0
Gaussian Coeffient302,2661,0
Gaussian Coeffient303,2662,0
Gaussian Coeffient304,2663,0
Gaussian Coeffient305,2664,0
Gaussian Coeffient306,2665,0
Gaussian Coeffient307,2666,0
Gaussian Coeffient308,2667,0
Gaussian Coeffient309,2668,0
Gaussian Coeffient310,2669,0
Gaussian Coeffient311,2670,0
Gaussian Coeffient312,2671,0
Gaussian Coeffient313,2672,0
Gaussian Coeffient314,2673,0
Gaussian Coeffient315,2674,0
Gaussian Coeffient316,2675,0
Gaussian Coeffient317,2676,0
Gaussian Coeffient318,2677,0
Gaussian Coeffient319,2678,0
Gaussian Coeffient320,2679,0
Gaussian Coeffient321,2680,0
Gaussian Coeffient322,2681,0
Gaussian Coeffient323,2682,0
Gaussian Coeffient324,2683,0
Gaussian Coeffient325,2684,0
Gaussian Coeffient326,2685,0
Gaussian Coeffient327,2686,0
Gaussian Coeffient328,2687,0
Gaussian Coeffient329,2688,0
Gaussian Coeffient330,2689,0
Gaussian Coeffient331,2690,0
Gaussian Coeffient332,2691,0
Gaussian Coeffient333,2692,0
Gaussian Coeffient334,2693,0
Gaussian Coeffient335,2694,0
Gaussian Coeffient336,2695,0
Gaussian Coeffient337,2696,0
Gaussian Coeffient338,2697,0
Gaussian Coeffient339,2698,0
Gaussian Coeffient340,2699,0
Gaussian Coeffient341,2700,0
Gaussian Coeffient342,2701,0
Gaussian Coeffient343,2702,0
Gaussian Coeffient344,2703,0
Gaussian Coeffient345,2704,0
Gaussian Coeffient346,2705,0
Gaussian Coeffient347,2706,0
Gaussian Coeffient348,2707,0
Gaussian Coeffient349,2708,0
Gaussian Coeffient350,2709,0
Gaussian Coeffient351,2710,0
Gaussian Coeffient352,2711,0
Gaussian Coeffient353,2712,0
Gaussian Coeffient354,2713,0
Gaussian Coeffient355,2714,0
Gaussian Coeffient356,2715,0
Gaussian Coeffient357,2716,0
Gaussian Coeffient358,2717,0
Gaussian Coeffient359,2718,0
Gaussian Coeffient360,2719,0
Gaussian Coeffient361,2720,0
Gaussian Coeffient362,2721,0
Gaussian Coeffient363,2722,0
Gaussian Coeffient364,2723,0
Gaussian Coeffient365,2724,0
Gaussian Coeffient366,2725,0
Gaussian Coeffient367,2726,0
Gaussian Coeffient368,2727,0
Gaussian Coeffient369,2728,0
Gaussian Coeffient370,2729,0
Gaussian Coeffient371,2730,0
Gaussian Coeffient372,2731,0
Gaussian Coeffient373,2732,0
Gaussian Coeffient374,2733,0
Gaussian Coeffient375,2734,0
Gaussian Coeffient376,2735,0
Gaussian Coeffient377,2736,0
Gaussian Coeffient378,2737,0
Gaussian Coeffient379,2738,0
Gaussian Coeffient380,2739,0
Gaussian Coeffient381,2740,0
Gaussian Coeffient382,2741,0
Gaussian Coeffient383,2742,0
Gaussian Coeffient384,2743,0
Gaussian Coeffient385,2744,0
Gaussian Coeffient386,2745,0
Gaussian Coeffient387,2746,0
Gaussian Coeffient388,2747,0
Gaussian Coeffient389,2748,0
Gaussian Coeffient390,2749,0
Gaussian Coeffient391,2750,0
Gaussian Coeffient392,2751,0
Gaussian Coeffient393,2752,0
Gaussian Coeffient394,2753,0
Gaussian Coeffient395,2754,0
Gaussian Coeffient396,2755,0
Gaussian Coeffient397,2756,0
Gaussian Coeffient398,2757,0
Gaussian Coeffient399,2758,0
Gaussian Coeffient400,2759,0
Gaussian Coeffient401,2760,0
Gaussian Coeffient402,2761,0
Gaussian Coeffient403,2762,0
Gaussian Coeffient404,2763,0
Gaussian Coeffient405,2764,0
Gaussian Coeffient406,2765,0
Gaussian Coeffient407,2766,0
Gaussian Coeffient408,2767,0
Gaussian Coeffient409,2768,0
Gaussian Coeffient410,2769,0
Gaussian Coeffient411,2770,0
Gaussian Coeffient412,2771,0
Gaussian Coeffient413,2772,0
Gaussian Coeffient414,2773,0
Gaussian Coeffient415,2774,0
Gaussian Coeffient416,2775,0
Gaussian Coeffient417,2776,0
Gaussian Coeffient418,2777,0
Gaussian Coeffient419,2778,0
Gaussian Coeffient420,2779,0
Gaussian Coeffient421,2780,0
Gaussian Coeffient422,2781,0
Gaussian Coeffient423,2782,0
Gaussian Coeffient424,2783,0
Gaussian Coeffient425,2784,0
Gaussian Coeffient426,2785,0
Gaussian Coeffient427,2786,0
Gaussian Coeffient428,2787,0
Gaussian Coeffient429,2788,0
Gaussian Coeffient430,2789,0
Gaussian Coeffient431,2790,0
Gaussian Coeffient432,2791,0
Gaussian Coeffient433,2792,0
Gaussian Coeffient434,2793,0
Gaussian Coeffient435,2794,0
Gaussian Coeffient436,2795,0
Gaussian Coeffient437,2796,0
Gaussian Coeffient438,2797,0
Gaussian Coeffient439,2798,0
Gaussian Coeffient440,2799,0
Gaussian Coeffient441,2800,0
Gaussian Coeffient442,2801,0
Gaussian Coeffient443,2802,0
Gaussian Coeffient444,2803,0
Gaussian Coeffient445,2804,0
Gaussian Coeffient446,2805,0
Gaussian Coeffient447,2806,0
Gaussian Coeffient448,2807,0
Gaussian Coeffient449,2808,0
Gaussian Coeffient450,2809,0
Gaussian Coeffient451,2810,0
Gaussian Coeffient452,2811,0
Gaussian Coeffient453,2812,0
Gaussian Coeffient454,2813,0
Gaussian Coeffient455,2814,0
Gaussian Coeffient456,2815,0
Gaussian Coeffient457,2816,0
Gaussian Coeffient458,2817,0
Gaussian Coeffient459,2818,0
Gaussian Coeffient460,2819,0
Gaussian Coeffient461,2820,0
Gaussian Coeffient462,2821,0
Gaussian Coeffient463,2822,0
Gaussian Coeffient464,2823,0
Gaussian Coeffient465,2824,0
Gaussian Coeffient466,2825,0
Gaussian Coeffient467,2826,0
Gaussian Coeffient468,2827,0
Gaussian Coeffient469,2828,0
Gaussian Coeffient470,2829,0
Gaussian Coeffient471,2830,0
Gaussian Coeffient472,2831,0
Gaussian Coeffient473,2832,0
Gaussian Coeffient474,2833,0
Gaussian Coeffient475,2834,0
Gaussian Coeffient476,2835,0
Gaussian Coeffient477,2836,0
Gaussian Coeffient478,2837,0
Gaussian Coeffient479,2838,0
Gaussian Coeffient480,2839,0
Gaussian Coeffient481,2840,0
Gaussian Coeffient482,2841,0
Gaussian Coeffient483,2842,0
Gaussian Coeffient484,2843,0
Gaussian Coeffient485,2844,0
Gaussian Coeffient486,2845,0
Gaussian Coeffient487,2846,0
Gaussian Coeffient488,2847,0
Gaussian Coeffient489,2848,0
Gaussian Coeffient490,2849,0
Gaussian Coeffient491,2850,0
Gaussian Coeffient492,2851,0
Gaussian Coeffient493,2852,0
Gaussian Coeffient494,2853,0
Gaussian Coeffient495,2854,0
Gaussian Coeffient496,2855,0
Gaussian Coeffient497,2856,0
Gaussian Coeffient498,2857,0
Gaussian Coeffient499,2858,0
Gaussian Coeffient500,2859,0
Gaussian Coeffient501,2860,0
Gaussian Coeffient502,2861,0
Gaussian Coeffient503,2862,0
Gaussian Coeffient504,2863,0
Gaussian Coeffient505,2864,0
Gaussian Coeffient506,2865,0
Gaussian Coeffient507,2866,0
Gaussian Coeffient508,2867,0
Gaussian Coeffient509,2868,0
Gaussian Coeffient510,2869,0
Gaussian Coeffient511,2870,0
Envelope Coeffient0,2871,0
Envelope Coeffient1,2872,0
Envelope Coeffient2,2873,0
Envelope Coeffient3,2874,0
Envelope Coeffient4,2875,0
Envelope Coeffient5,2876,0
Envelope Coeffient6,2877,0
Envelope Coeffient7,2878,0
Envelope Coeffient8,2879,0
Envelope Coeffient9,2880,0
Envelope Coeffient10,2881,0
Envelope Coeffient11,2882,0
Envelope Coeffient12,2883,0
Envelope Coeffient13,2884,0
Envelope Coeffient14,2885,0
Envelope Coeffient15,2886,0
Envelope Coeffient16,2887,0
Envelope Coeffient17,2888,0
Envelope Coeffient18,2889,0
Envelope Coeffient19,2890,0
Envelope Coeffient20,2891,0
Envelope Coeffient21,2892,0
Envelope Coeffient22,2893,0
Envelope Coeffient23,2894,0
Envelope Coeffient24,2895,0
Envelope Coeffient25,2896,0
Envelope Coeffient26,2897,0
Envelope Coeffient27,2898,0
Envelope Coeffient28,2899,0
Envelope Coeffient29,2900,0
Envelope Coeffient30,2901,0
Envelope Coeffient31,2902,0
Envelope Coeffient32,2903,0
Envelope Coeffient33,2904,0
Envelope Coeffient34,2905,0
Envelope Coeffient35,2906,0
Envelope Coeffient36,2907,0
Envelope Coeffient37,2908,0
Envelope Coeffient38,2909,0
Envelope Coeffient39,2910,0
Envelope Coeffient40,2911,0
Envelope Coeffient41,2912,0
Envelope Coeffient42,2913,0
Envelope Coeffient43,2914,0
Envelope Coeffient44,2915,0
Envelope Coeffient45,2916,0
Envelope Coeffient46,2917,0
Envelope Coeffient47,2918,0
Envelope Coeffient48,2919,0
Envelope Coeffient49,2920,0
Envelope Coeffient50,2921,0
Envelope Coeffient51,2922,0
Envelope Coeffient52,2923,0
Envelope Coeffient53,2924,0
Envelope Coeffient54,2925,0
Envelope Coeffient55,2926,0
Envelope Coeffient56,2927,0
Envelope Coeffient57,2928,0
Envelope Coeffient58,2929,0
Envelope Coeffient59,2930,0
Envelope Coeffient60,2931,0
Envelope Coeffient61,2932,0
Envelope Coeffient62,2933,0
Envelope Coeffient63,2934,0
Envelope Coeffient64,2935,0
Envelope Coeffient65,2936,0
Envelope Coeffient66,2937,0
Envelope Coeffient67,2938,0
Envelope Coeffient68,2939,0
Envelope Coeffient69,2940,0
Envelope Coeffient70,2941,0
Envelope Coeffient71,2942,0
Envelope Coeffient72,2943,0
Envelope Coeffient73,2944,0
Envelope Coeffient74,2945,0
Envelope Coeffient75,2946,0
Envelope Coeffient76,2947,0
Envelope Coeffient77,2948,0
Envelope Coeffient78,2949,0
Envelope Coeffient79,2950,0
Envelope Coeffient80,2951,0
Envelope Coeffient81,2952,0
Envelope Coeffient82,2953,0
Envelope Coeffient83,2954,0
Envelope Coeffient84,2955,0
Envelope Coeffient85,2956,0
Envelope Coeffient86,2957,0
Envelope Coeffient87,2958,0
Envelope Coeffient88,2959,0
Envelope Coeffient89,2960,0
Envelope Coeffient90,2961,0
Envelope Coeffient91,2962,0
Envelope Coeffient92,2963,0
Envelope Coeffient93,2964,0
Envelope Coeffient94,2965,0
Envelope Coeffient95,2966,0
Envelope Coeffient96,2967,0
Envelope Coeffient97,2968,0
Envelope Coeffient98,2969,0
Envelope Coeffient99,2970,0
Envelope Coeffient100,2971,0
Envelope Coeffient101,2972,0
Envelope Coeffient102,2973,0
Envelope Coeffient103,2974,0
Envelope Coeffient104,2975,0
Envelope Coeffient105,2976,0
Envelope Coeffient106,2977,0
Envelope Coeffient107,2978,0
Envelope Coeffient108,2979,0
Envelope Coeffient109,2980,0
Envelope Coeffient110,2981,0
Envelope Coeffient111,2982,0
Envelope Coeffient112,2983,0
Envelope Coeffient113,2984,0
Envelope Coeffient114,2985,0
Envelope Coeffient115,2986,0
Envelope Coeffient116,2987,0
Envelope Coeffient117,2988,0
Envelope Coeffient118,2989,0
Envelope Coeffient119,2990,0
Envelope Coeffient120,2991,0
Envelope Coeffient121,2992,0
Envelope Coeffient122,2993,0
Envelope Coeffient123,2994,0
Envelope Coeffient124,2995,0
Envelope Coeffient125,2996,0
Envelope Coeffient126,2997,0
Envelope Coeffient127,2998,0
Envelope Coeffient128,2999,0
Envelope Coeffient129,3000,0
Envelope Coeffient130,3001,0
Envelope Coeffient131,3002,0
Envelope Coeffient132,3003,0
Envelope Coeffient133,3004,0
Envelope Coeffient134,3005,0
Envelope Coeffient135,3006,0
Envelope Coeffient136,3007,0
Envelope Coeffient137,3008,0
Envelope Coeffient138,3009,0
Envelope Coeffient139,3010,0
Envelope Coeffient140,3011,0
Envelope Coeffient141,3012,0
Envelope Coeffient142,3013,0
Envelope Coeffient143,3014,0
Envelope Coeffient144,3015,0
Envelope Coeffient145,3016,0
Envelope Coeffient146,3017,0
Envelope Coeffient147,3018,0
Envelope Coeffient148,3019,0
Envelope Coeffient149,3020,0
Envelope Coeffient150,3021,0
Envelope Coeffient151,3022,0
Envelope Coeffient152,3023,0
Envelope Coeffient153,3024,0
Envelope Coeffient154,3025,0
Envelope Coeffient155,3026,0
Envelope Coeffient156,3027,0
Envelope Coeffient157,3028,0
Envelope Coeffient158,3029,0
Envelope Coeffient159,3030,0
Envelope Coeffient160,3031,0
Envelope Coeffient161,3032,0
Envelope Coeffient162,3033,0
Envelope Coeffient163,3034,0
Envelope Coeffient164,3035,0
Envelope Coeffient165,3036,0
Envelope Coeffient166,3037,0
Envelope Coeffient167,3038,0
Envelope Coeffient168,3039,0
Envelope Coeffient169,3040,0
Envelope Coeffient170,3041,0
Envelope Coeffient171,3042,0
Envelope Coeffient172,3043,0
Envelope Coeffient173,3044,0
Envelope Coeffient174,3045,0
Envelope Coeffient175,3046,0
Envelope Coeffient176,3047,0
Envelope Coeffient177,3048,0
Envelope Coeffient178,3049,0
Envelope Coeffient179,3050,0
Envelope Coeffient180,3051,0
Envelope Coeffient181,3052,0
Envelope Coeffient182,3053,0
Envelope Coeffient183,3054,0
Envelope Coeffient184,3055,0
Envelope Coeffient185,3056,0
Envelope Coeffient186,3057,0
Envelope Coeffient187,3058,0
Envelope Coeffient188,3059,0
Envelope Coeffient189,3060,0
Envelope Coeffient190,3061,0
Envelope Coeffient191,3062,0
Envelope Coeffient192,3063,0
Envelope Coeffient193,3064,0
Envelope Coeffient194,3065,0
Envelope Coeffient195,3066,0
Envelope Coeffient196,3067,0
Envelope Coeffient197,3068,0
Envelope Coeffient198,3069,0
Envelope Coeffient199,3070,0
Envelope Coeffient200,3071,0
Envelope Coeffient201,3072,0
Envelope Coeffient202,3073,0
Envelope Coeffient203,3074,0
Envelope Coeffient204,3075,0
Envelope Coeffient205,3076,0
Envelope Coeffient206,3077,0
Envelope Coeffient207,3078,0
Envelope Coeffient208,3079,0
Envelope Coeffient209,3080,0
Envelope Coeffient210,3081,0
Envelope Coeffient211,3082,0
Envelope Coeffient212,3083,0
Envelope Coeffient213,3084,0
Envelope Coeffient214,3085,0
Envelope Coeffient215,3086,0
Envelope Coeffient216,3087,0
Envelope Coeffient217,3088,0
Envelope Coeffient218,3089,0
Envelope Coeffient219,3090,0
Envelope Coeffient220,3091,0
Envelope Coeffient221,3092,0
Envelope Coeffient222,3093,0
Envelope Coeffient223,3094,0
Envelope Coeffient224,3095,0
Envelope Coeffient225,3096,0
Envelope Coeffient226,3097,0
Envelope Coeffient227,3098,0
Envelope Coeffient228,3099,0
Envelope Coeffient229,3100,0
Envelope Coeffient230,3101,0
Envelope Coeffient231,3102,0
Envelope Coeffient232,3103,0
Envelope Coeffient233,3104,0
Envelope Coeffient234,3105,0
Envelope Coeffient235,3106,0
Envelope Coeffient236,3107,0
Envelope Coeffient237,3108,0
Envelope Coeffient238,3109,0
Envelope Coeffient239,3110,0
Envelope Coeffient240,3111,0
Envelope Coeffient241,3112,0
Envelope Coeffient242,3113,0
Envelope Coeffient243,3114,0
Envelope Coeffient244,3115,0
Envelope Coeffient245,3116,0
Envelope Coeffient246,3117,0
Envelope Coeffient247,3118,0
Envelope Coeffient248,3119,0
Envelope Coeffient249,3120,0
Envelope Coeffient250,3121,0
Envelope Coeffient251,3122,0
Envelope Coeffient252,3123,0
Envelope Coeffient253,3124,0
Envelope Coeffient254,3125,0
Envelope Coeffient255,3126,0
Envelope Coeffient256,3127,0
Envelope Coeffient257,3128,0
Envelope Coeffient258,3129,0
Envelope Coeffient259,3130,0
Envelope Coeffient260,3131,0
Envelope Coeffient261,3132,0
Envelope Coeffient262,3133,0
Envelope Coeffient263,3134,0
Envelope Coeffient264,3135,0
Envelope Coeffient265,3136,0
Envelope Coeffient266,3137,0
Envelope Coeffient267,3138,0
Envelope Coeffient268,3139,0
Envelope Coeffient269,3140,0
Envelope Coeffient270,3141,0
Envelope Coeffient271,3142,0
Envelope Coeffient272,3143,0
Envelope Coeffient273,3144,0
Envelope Coeffient274,3145,0
Envelope Coeffient275,3146,0
Envelope Coeffient276,3147,0
Envelope Coeffient277,3148,0
Envelope Coeffient278,3149,0
Envelope Coeffient279,3150,0
Envelope Coeffient280,3151,0
Envelope Coeffient281,3152,0
Envelope Coeffient282,3153,0
Envelope Coeffient283,3154,0
Envelope Coeffient284,3155,0
Envelope Coeffient285,3156,0
Envelope Coeffient286,3157,0
Envelope Coeffient287,3158,0
Envelope Coeffient288,3159,0
Envelope Coeffient289,3160,0
Envelope Coeffient290,3161,0
Envelope Coeffient291,3162,0
Envelope Coeffient292,3163,0
Envelope Coeffient293,3164,0
Envelope Coeffient294,3165,0
Envelope Coeffient295,3166,0
Envelope Coeffient296,3167,0
Envelope Coeffient297,3168,0
Envelope Coeffient298,3169,0
Envelope Coeffient299,3170,0
Envelope Coeffient300,3171,0
Envelope Coeffient301,3172,0
Envelope Coeffient302,3173,0
Envelope Coeffient303,3174,0
Envelope Coeffient304,3175,0
Envelope Coeffient305,3176,0
Envelope Coeffient306,3177,0
Envelope Coeffient307,3178,0
Envelope Coeffient308,3179,0
Envelope Coeffient309,3180,0
Envelope Coeffient310,3181,0
Envelope Coeffient311,3182,0
Envelope Coeffient312,3183,0
Envelope Coeffient313,3184,0
Envelope Coeffient314,3185,0
Envelope Coeffient315,3186,0
Envelope Coeffient316,3187,0
Envelope Coeffient317,3188,0
Envelope Coeffient318,3189,0
Envelope Coeffient319,3190,0
Envelope Coeffient320,3191,0
Envelope Coeffient321,3192,0
Envelope Coeffient322,3193,0
Envelope Coeffient323,3194,0
Envelope Coeffient324,3195,0
Envelope Coeffient325,3196,0
Envelope Coeffient326,3197,0
Envelope Coeffient327,3198,0
Envelope Coeffient328,3199,0
Envelope Coeffient329,3200,0
Envelope Coeffient330,3201,0
Envelope Coeffient331,3202,0
Envelope Coeffient332,3203,0
Envelope Coeffient333,3204,0
Envelope Coeffient334,3205,0
Envelope Coeffient335,3206,0
Envelope Coeffient336,3207,0
Envelope Coeffient337,3208,0
Envelope Coeffient338,3209,0
Envelope Coeffient339,3210,0
Envelope Coeffient340,3211,0
Envelope Coeffient341,3212,0
Envelope Coeffient342,3213,0
Envelope Coeffient343,3214,0
Envelope Coeffient344,3215,0
Envelope Coeffient345,3216,0
Envelope Coeffient346,3217,0
Envelope Coeffient347,3218,0
Envelope Coeffient348,3219,0
Envelope Coeffient349,3220,0
Envelope Coeffient350,3221,0
Envelope Coeffient351,3222,0
Envelope Coeffient352,3223,0
Envelope Coeffient353,3224,0
Envelope Coeffient354,3225,0
Envelope Coeffient355,3226,0
Envelope Coeffient356,3227,0
Envelope Coeffient357,3228,0
Envelope Coeffient358,3229,0
Envelope Coeffient359,3230,0
Envelope Coeffient360,3231,0
Envelope Coeffient361,3232,0
Envelope Coeffient362,3233,0
Envelope Coeffient363,3234,0
Envelope Coeffient364,3235,0
Envelope Coeffient365,3236,0
Envelope Coeffient366,3237,0
Envelope Coeffient367,3238,0
Envelope Coeffient368,3239,0
Envelope Coeffient369,3240,0
Envelope Coeffient370,3241,0
Envelope Coeffient371,3242,0
Envelope Coeffient372,3243,0
Envelope Coeffient373,3244,0
Envelope Coeffient374,3245,0
Envelope Coeffient375,3246,0
Envelope Coeffient376,3247,0
Envelope Coeffient377,3248,0
Envelope Coeffient378,3249,0
Envelope Coeffient379,3250,0
Envelope Coeffient380,3251,0
Envelope Coeffient381,3252,0
Envelope Coeffient382,3253,0
Envelope Coeffient383,3254,0
Envelope Coeffient384,3255,0
Envelope Coeffient385,3256,0
Envelope Coeffient386,3257,0
Envelope Coeffient387,3258,0
Envelope Coeffient388,3259,0
Envelope Coeffient389,3260,0
Envelope Coeffient390,3261,0
Envelope Coeffient391,3262,0
Envelope Coeffient392,3263,0
Envelope Coeffient393,3264,0
Envelope Coeffient394,3265,0
Envelope Coeffient395,3266,0
Envelope Coeffient396,3267,0
Envelope Coeffient397,3268,0
Envelope Coeffient398,3269,0
Envelope Coeffient399,3270,0
Envelope Coeffient400,3271,0
Envelope Coeffient401,3272,0
Envelope Coeffient402,3273,0
Envelope Coeffient403,3274,0
Envelope Coeffient404,3275,0
Envelope Coeffient405,3276,0
Envelope Coeffient406,3277,0
Envelope Coeffient407,3278,0
Envelope Coeffient408,3279,0
Envelope Coeffient409,3280,0
Envelope Coeffient410,3281,0
Envelope Coeffient411,3282,0
Envelope Coeffient412,3283,0
Envelope Coeffient413,3284,0
Envelope Coeffient414,3285,0
Envelope Coeffient415,3286,0
Envelope Coeffient416,3287,0
Envelope Coeffient417,3288,0
Envelope Coeffient418,3289,0
Envelope Coeffient419,3290,0
Envelope Coeffient420,3291,0
Envelope Coeffient421,3292,0
Envelope Coeffient422,3293,0
Envelope Coeffient423,3294,0
Envelope Coeffient424,3295,0
Envelope Coeffient425,3296,0
Envelope Coeffient426,3297,0
Envelope Coeffient427,3298,0
Envelope Coeffient428,3299,0
Envelope Coeffient429,3300,0
Envelope Coeffient430,3301,0
Envelope Coeffient431,3302,0
Envelope Coeffient432,3303,0
Envelope Coeffient433,3304,0
Envelope Coeffient434,3305,0
Envelope Coeffient435,3306,0
Envelope Coeffient436,3307,0
Envelope Coeffient437,3308,0
Envelope Coeffient438,3309,0
Envelope Coeffient439,3310,0
Envelope Coeffient440,3311,0
Envelope Coeffient441,3312,0
Envelope Coeffient442,3313,0
Envelope Coeffient443,3314,0
Envelope Coeffient444,3315,0
Envelope Coeffient445,3316,0
Envelope Coeffient446,3317,0
Envelope Coeffient447,3318,0
Envelope Coeffient448,3319,0
Envelope Coeffient449,3320,0
Envelope Coeffient450,3321,0
Envelope Coeffient451,3322,0
Envelope Coeffient452,3323,0
Envelope Coeffient453,3324,0
Envelope Coeffient454,3325,0
Envelope Coeffient455,3326,0
Envelope Coeffient456,3327,0
Envelope Coeffient457,3328,0
Envelope Coeffient458,3329,0
Envelope Coeffient459,3330,0
Envelope Coeffient460,3331,0
Envelope Coeffient461,3332,0
Envelope Coeffient462,3333,0
Envelope Coeffient463,3334,0
Envelope Coeffient464,3335,0
Envelope Coeffient465,3336,0
Envelope Coeffient466,3337,0
Envelope Coeffient467,3338,0
Envelope Coeffient468,3339,0
Envelope Coeffient469,3340,0
Envelope Coeffient470,3341,0
Envelope Coeffient471,3342,0
Envelope Coeffient472,3343,0
Envelope Coeffient473,3344,0
Envelope Coeffient474,3345,0
Envelope Coeffient475,3346,0
Envelope Coeffient476,3347,0
Envelope Coeffient477,3348,0
Envelope Coeffient478,3349,0
Envelope Coeffient479,3350,0
Envelope Coeffient480,3351,0
Envelope Coeffient481,3352,0
Envelope Coeffient482,3353,0
Envelope Coeffient483,3354,0
Envelope Coeffient484,3355,0
Envelope Coeffient485,3356,0
Envelope Coeffient486,3357,0
Envelope Coeffient487,3358,0
Envelope Coeffient488,3359,0
Envelope Coeffient489,3360,0
Envelope Coeffient490,3361,0
Envelope Coeffient491,3362,0
Envelope Coeffient492,3363,0
Envelope Coeffient493,3364,0
Envelope Coeffient494,3365,0
Envelope Coeffient495,3366,0
Envelope Coeffient496,3367,0
Envelope Coeffient497,3368,0
Envelope Coeffient498,3369,0
Envelope Coeffient499,3370,0
Envelope Coeffient500,3371,0
Envelope Coeffient501,3372,0
Envelope Coeffient502,3373,0
Envelope Coeffient503,3374,0
Envelope Coeffient504,3375,0
Envelope Coeffient505,3376,0
Envelope Coeffient506,3377,0
Envelope Coeffient507,3378,0
Envelope Coeffient508,3379,0
Envelope Coeffient509,3380,0
Envelope Coeffient510,3381,0
Envelope Coeffient511,3382,0
Actual Taps,3383,2
Reserved,3384,0
Start Time,3385,0
Start Gain,3386,0
Step#0,3387,0
GainStep#0,3388,0
Step#1,3389,62500
GainStep#1,3390,0
Step#2,3391,24937500
GainStep#2,3392,0
Step#3,3393,0
GainStep#3,3394,0
Step#4,3395,0
GainStep#4,3396,0
Step#5,3397,0
GainStep#5,3398,0
Step#6,3399,0
GainStep#6,3400,0
Step#7,3401,0
GainStep#7,3402,0
Step#8,3403,0
GainStep#8,3404,0
Step#9,3405,0
GainStep#9,3406,0
Step#10,3407,0
GainStep#10,3408,0
Step#11,3409,0
GainStep#11,3410,0
Step#12,3411,0
GainStep#12,3412,0
Step#13,3413,0
GainStep#13,3414,0
Step#14,3415,0
GainStep#14,3416,0
Step#15,3417,0
GainStep#15,3418,0
Step#16,3419,0
GainStep#16,3420,0
Step#17,3421,0
GainStep#17,3422,0
Step#18,3423,0
GainStep#18,3424,0
Step#19,3425,0
GainStep#19,3426,0
Step#20,3427,0
GainStep#20,3428,0
Step#21,3429,0
GainStep#21,3430,0
Step#22,3431,0
GainStep#22,3432,0
Step#23,3433,0
GainStep#23,3434,0
Step#24,3435,0
GainStep#24,3436,0
Step#25,3437,0
GainStep#25,3438,0
Step#26,3439,0
GainStep#26,3440,0
Step#27,3441,0
GainStep#27,3442,0
Step#28,3443,0
GainStep#28,3444,0
Step#29,3445,0
GainStep#29,3446,0
Step#30,3447,0
GainStep#30,3448,0
Step#31,3449,0
GainStep#31,3450,0
Step#32,3451,0
GainStep#32,3452,0
Step#33,3453,0
GainStep#33,3454,0
Step#34,3455,0
GainStep#34,3456,0
Step#35,3457,0
GainStep#35,3458,0
Step#36,3459,0
GainStep#36,3460,0
Step#37,3461,0
GainStep#37,3462,0
Step#38,3463,0
GainStep#38,3464,0
Step#39,3465,0
GainStep#39,3466,0
Step#40,3467,0
GainStep#40,3468,0
Step#41,3469,0
GainStep#41,3470,0
Step#42,3471,0
GainStep#42,3472,0
Step#43,3473,0
GainStep#43,3474,0
Step#44,3475,0
GainStep#44,3476,0
Step#45,3477,0
GainStep#45,3478,0
Step#46,3479,0
GainStep#46,3480,0
Step#47,3481,0
GainStep#47,3482,0
Step#48,3483,0
GainStep#48,3484,0
Step#49,3485,0
GainStep#49,3486,0
Step#50,3487,0
GainStep#50,3488,0
Step#51,3489,0
GainStep#51,3490,0
Step#52,3491,0
GainStep#52,3492,0
Step#53,3493,0
GainStep#53,3494,0
Step#54,3495,0
GainStep#54,3496,0
Step#55,3497,0
GainStep#55,3498,0
Step#56,3499,0
GainStep#56,3500,0
Step#57,3501,0
GainStep#57,3502,0
Step#58,3503,0
GainStep#58,3504,0
Step#59,3505,0
GainStep#59,3506,0
Step#60,3507,0
GainStep#60,3508,0
Step#61,3509,0
GainStep#61,3510,0
Step#62,3511,0
GainStep#62,3512,0
 trigger type,3513,0
Digitial IO:,3514,255
